40.0,109.5244
40.0,106.0901
40.0,104.8712
40.0,104.8696
40.0,104.8696
40.0,104.8696
40.0,104.8665
40.0,104.868
40.0,104.868
40.0,104.8649
40.0,104.8696
40.0,104.868
40.0,104.868
40.0,104.8696
40.0,104.8649
40.0,104.8649
40.0,104.8649
40.0,104.8649
40.0,104.8696
40.0,104.868
40.0,104.8665
40.0,104.8649
40.0,104.8618
40.0,104.8634
40.0,104.8571
40.0,104.8571
40.0,104.8618
40.0,104.8618
40.0,104.8587
40.0,104.8587
40.0,104.8571
40.0,104.8603
40.0,104.8494
40.0,104.8556
40.0,104.8618
40.0,104.8665
40.0,104.8634
40.0,104.868
40.0,104.8618
40.0,104.8556
40.0,104.854
40.0,104.8525
40.0,104.854
40.0,104.8338
40.0,104.8462
40.0,104.8603
40.0,104.8587
40.0,104.8634
40.0,104.8634
40.0,104.8587
40.0,104.8587
40.0,104.8556
40.0,104.8556
40.0,104.8603
40.0,104.8587
40.0,104.8587
40.0,104.8571
40.0,104.8556
40.0,104.8618
40.0,104.8603
40.0,104.8603
40.0,104.8618
40.0,104.8603
40.0,104.8618
40.0,104.8587
40.0,104.8587
40.0,104.8603
40.0,104.8587
40.0,104.8603
40.0,104.8618
40.0,104.8603
40.0,104.8587
40.0,104.8571
40.0,104.8556
40.0,104.8587
40.0,104.8587
40.0,104.8587
40.0,104.8587
40.0,104.8556
40.0,104.8571
40.0,104.8525
40.0,104.854
40.0,104.8556
40.0,104.8556
40.0,104.8571
40.0,104.8571
40.0,104.8587
40.0,104.8556
40.0,104.8525
40.0,104.8494
40.0,104.8587
40.0,104.8556
40.0,104.8509
40.0,104.8603
40.0,104.8587
40.0,104.8571
40.0,104.8649
40.0,104.8525
40.0,104.8634
40.0,104.8416
40.0,104.8478
40.0,104.8571
40.0,104.8509
40.0,104.8618
40.0,104.8587
40.0,104.8587
40.0,104.8587
40.0,104.8525
40.0,104.8571
40.0,104.8509
40.0,104.8525
40.0,104.8525
40.0,104.8494
40.0,104.8525
40.0,104.8509
40.0,104.8587
40.0,104.8587
40.0,104.8571
40.0,104.8587
40.0,104.8431
40.0,104.8462
40.0,104.8509
40.0,104.8494
40.0,104.8571
40.0,104.8494
40.0,104.8634
40.0,104.8618
40.0,104.8556
40.0,104.8634
40.0,104.8525
40.0,104.8603
40.0,104.8478
40.0,104.8494
40.0,104.854
40.0,104.8525
40.0,104.8571
40.0,104.8556
40.0,104.8571
40.0,104.8603
40.0,104.8525
40.0,104.854
40.0,104.8447
40.0,104.8447
40.0,104.8447
40.0,104.8447
40.0,104.8603
40.0,104.8556
40.0,104.8556
40.0,104.8509
40.0,104.8509
40.0,104.8525
40.0,104.8509
40.0,104.8525
40.0,104.8478
40.0,104.8494
40.0,104.8416
40.0,104.8385
40.0,104.8478
40.0,104.84
40.0,104.8509
40.0,104.8509
40.0,104.8509
40.0,104.8525
40.0,104.8369
40.0,104.8416
40.0,104.8369
40.0,104.8369
40.0,104.8462
40.0,104.8447
40.0,104.8509
40.0,104.8494
40.0,104.8431
40.0,104.8462
40.0,104.84
40.0,104.8416
40.0,104.8447
40.0,104.8447
40.0,104.8447
40.0,104.8416
40.0,104.8416
40.0,104.8416
40.0,104.8416
40.0,104.8416
40.0,104.8447
40.0,104.8416
40.0,104.8431
40.0,104.8416
40.0,104.8369
40.0,104.8385
40.0,104.8385
40.0,104.8385
40.0,104.84
40.0,104.8369
40.0,104.84
40.0,104.8369
40.0,104.8338
40.0,104.8338
40.0,104.8353
40.0,104.8338
40.0,104.8353
40.0,104.8338
40.0,104.8369
40.0,104.8338
40.0,104.8338
40.0,104.8385
40.0,104.8353
40.0,104.8353
40.0,104.8338
40.0,104.8322
40.0,104.8322
40.0,104.8369
40.0,104.8369
40.0,104.8369
40.0,104.8385
40.0,104.8338
40.0,104.8353
40.0,104.8322
40.0,104.8307
40.0,104.8353
40.0,104.8322
40.0,104.8385
40.0,104.8369
40.0,104.8322
40.0,104.8338
40.0,104.8291
40.0,104.8276
40.0,104.8322
40.0,104.8307
40.0,104.8291
40.0,104.8338
40.0,104.8338
40.0,104.8353
40.0,104.8369
40.0,104.8338
40.0,104.8353
40.0,104.8338
40.0,104.8338
40.0,104.8369
40.0,104.8353
40.0,104.8353
40.0,104.8353
40.0,104.8322
40.0,104.8338
40.0,104.8338
40.0,104.8338
40.0,104.8353
40.0,104.8338
40.0,104.8353
40.0,104.8338
40.0,104.8322
40.0,104.8353
40.0,104.8338
40.0,104.8338
40.0,104.8353
40.0,104.8322
40.0,104.8338
40.0,104.8322
40.0,104.8353
40.0,104.8353
40.0,104.8322
40.0,104.8322
40.0,104.8338
40.0,104.8307
40.0,104.8338
40.0,104.8353
40.0,104.8338
40.0,104.8353
40.0,104.8307
40.0,104.8307
40.0,104.8291
40.0,104.8291
40.0,104.8307
40.0,104.8338
40.0,104.8322
40.0,104.8338
40.0,104.8353
40.0,104.8307
40.0,104.8322
40.0,104.8276
40.0,104.826
40.0,104.8338
40.0,104.8338
40.0,104.8338
40.0,104.8338
40.0,104.826
40.0,104.8276
40.0,104.8276
40.0,104.826
40.0,104.8322
40.0,104.8322
40.0,104.8322
40.0,104.8322
40.0,104.826
40.0,104.8276
40.0,104.8276
40.0,104.8276
40.0,104.8307
40.0,104.8338
40.0,104.8322
40.0,104.8322
40.0,104.8276
40.0,104.8291
40.0,104.8322
40.0,104.8338
40.0,104.8338
40.0,104.8353
40.0,104.8307
40.0,104.8307
40.0,104.8322
40.0,104.8307
40.0,104.8338
40.0,104.8353
40.0,104.8353
40.0,104.8369
40.0,104.8276
40.0,104.8291
40.0,104.8307
40.0,104.8307
40.0,104.8369
40.0,104.8353
40.0,104.8338
40.0,104.8322
40.0,104.8291
40.0,104.8276
40.0,104.8291
40.0,104.8276
40.0,104.8338
40.0,104.8322
40.0,104.8307
40.0,104.8322
40.0,104.826
40.0,104.826
40.0,104.826
40.0,104.8322
40.0,104.8338
40.0,104.8353
40.0,104.8369
40.0,104.8291
40.0,104.8307
40.0,104.8291
40.0,104.8307
40.0,104.8353
40.0,104.8353
40.0,104.8369
40.0,104.8353
40.0,104.8307
40.0,104.8307
40.0,104.8307
40.0,104.8291
40.0,104.8338
40.0,104.8338
40.0,104.8353
40.0,104.8338
40.0,104.8291
40.0,104.8276
40.0,104.8291
40.0,104.8291
40.0,104.8338
40.0,104.8322
40.0,104.8322
40.0,104.8307
40.0,104.826
40.0,104.8276
40.0,104.8291
40.0,104.8276
40.0,104.8338
40.0,104.8338
40.0,104.8307
40.0,104.8322
40.0,104.8276
40.0,104.8276
40.0,104.8307
40.0,104.8322
40.0,104.8338
40.0,104.8338
40.0,104.8338
40.0,104.8322
40.0,104.8291
40.0,104.8291
40.0,104.8322
40.0,104.8307
40.0,104.8353
40.0,104.8338
40.0,104.8276
40.0,104.8291
40.0,104.8291
40.0,104.8291
40.0,104.8338
40.0,104.8322
40.0,104.8338
40.0,104.8307
40.0,104.8291
40.0,104.8276
40.0,104.8276
40.0,104.8276
40.0,104.8338
40.0,104.8307
40.0,104.8322
40.0,104.8307
40.0,104.8291
40.0,104.8276
40.0,104.8291
40.0,104.8291
40.0,104.8291
40.0,104.8338
40.0,104.8322
40.0,104.8307
40.0,104.8307
40.0,104.826
40.0,104.8307
40.0,104.8276
40.0,104.8291
40.0,104.8322
40.0,104.8291
40.0,104.8322
40.0,104.8307
40.0,104.8276
40.0,104.8291
40.0,104.8276
40.0,104.8291
40.0,104.8307
40.0,104.8291
40.0,104.8276
40.0,104.8276
40.0,104.8276
40.0,104.8307
40.0,104.8291
40.0,104.8291
40.0,104.8307
40.0,104.8307
40.0,104.826
40.0,104.8307
40.0,104.8276
40.0,104.8291
40.0,104.8322
40.0,104.8291
40.0,104.8307
40.0,104.8291
40.0,104.8276
40.0,104.8291
40.0,104.8276
40.0,104.8322
40.0,104.8291
40.0,104.8307
40.0,104.8322
40.0,104.8322
40.0,104.8307
40.0,104.8338
40.0,104.8276
40.0,104.8322
45.0,104.8322
45.0,104.8307
45.0,104.8322
45.0,104.8307
45.0,104.8338
45.0,104.8322
45.0,104.8369
45.0,104.8353
45.0,104.8338
45.0,104.8353
45.0,104.8276
45.0,104.8291
45.0,104.8322
45.0,104.8307
45.0,104.8369
45.0,104.8369
45.0,104.8338
45.0,104.8338
45.0,104.8291
45.0,104.8322
45.0,104.8291
45.0,104.8307
45.0,104.8369
45.0,104.8369
45.0,104.8353
45.0,104.8369
45.0,104.8307
45.0,104.8322
45.0,104.8338
45.0,104.8338
45.0,104.8369
45.0,104.8369
45.0,104.8369
45.0,104.8338
45.0,104.8322
45.0,104.8322
45.0,104.8338
45.0,104.8338
45.0,104.8369
45.0,104.8369
45.0,104.8353
45.0,104.8338
45.0,104.8322
45.0,104.8307
45.0,104.8353
45.0,104.8338
45.0,104.8338
45.0,104.8338
45.0,104.8338
45.0,104.8338
45.0,104.8338
45.0,104.8307
45.0,104.8353
45.0,104.8307
45.0,104.8322
45.0,104.8338
45.0,104.8322
45.0,104.8338
45.0,104.8353
45.0,104.8322
45.0,104.8353
45.0,104.8338
45.0,104.8353
45.0,104.8338
45.0,104.8369
45.0,104.8353
45.0,104.8353
45.0,104.8353
45.0,104.8353
45.0,104.8353
45.0,104.8353
45.0,104.8369
45.0,104.8353
45.0,104.8353
45.0,104.8369
45.0,104.8353
45.0,104.8385
45.0,104.8369
45.0,104.8338
45.0,104.8369
45.0,104.8338
45.0,104.8369
45.0,104.8369
45.0,104.8353
45.0,104.8369
45.0,104.8369
45.0,104.8353
45.0,104.8385
45.0,104.8353
45.0,104.8369
45.0,104.8385
45.0,104.8385
45.0,104.84
45.0,104.8369
45.0,104.8385
45.0,104.8369
45.0,104.8353
45.0,104.8385
45.0,104.84
45.0,104.8385
45.0,104.84
45.0,104.84
45.0,104.84
45.0,104.8369
45.0,104.8369
45.0,104.8369
45.0,104.8369
45.0,104.8385
45.0,104.8385
45.0,104.8385
45.0,104.8353
45.0,104.8353
45.0,104.8369
45.0,104.8338
45.0,104.8385
45.0,104.84
45.0,104.8369
45.0,104.8369
45.0,104.8353
45.0,104.8338
45.0,104.8353
45.0,104.8338
45.0,104.8385
45.0,104.8385
45.0,104.8369
45.0,104.84
45.0,104.84
45.0,104.8369
45.0,104.8369
45.0,104.8353
45.0,104.8353
45.0,104.84
45.0,104.84
45.0,104.84
45.0,104.84
45.0,104.8369
45.0,104.8369
45.0,104.8353
45.0,104.8353
45.0,104.84
45.0,104.8385
45.0,104.84
45.0,104.84
45.0,104.8353
45.0,104.8338
45.0,104.8369
45.0,104.8353
45.0,104.8385
45.0,104.8385
45.0,104.8385
45.0,104.8385
45.0,104.8338
45.0,104.8338
45.0,104.8353
45.0,104.8338
45.0,104.8416
45.0,104.8416
45.0,104.8385
45.0,104.8416
45.0,104.8322
45.0,104.8353
45.0,104.8338
45.0,104.8322
45.0,104.8385
45.0,104.8369
45.0,104.8385
45.0,104.84
45.0,104.8338
45.0,104.8353
45.0,104.8322
45.0,104.8353
45.0,104.84
45.0,104.8385
45.0,104.8369
45.0,104.8369
45.0,104.8338
45.0,104.8338
45.0,104.8353
45.0,104.8353
45.0,104.8385
45.0,104.8385
45.0,104.8369
45.0,104.8353
45.0,104.8322
45.0,104.8322
45.0,104.8338
45.0,104.8322
45.0,104.8322
45.0,104.8369
45.0,104.8338
45.0,104.8353
45.0,104.8338
45.0,104.8322
45.0,104.8322
45.0,104.8307
45.0,104.8322
45.0,104.8353
45.0,104.8338
45.0,104.8338
45.0,104.8338
45.0,104.8291
45.0,104.8307
45.0,104.8307
45.0,104.8322
45.0,104.8338
45.0,104.8338
45.0,104.8322
45.0,104.8307
45.0,104.8291
45.0,104.8276
45.0,104.8291
45.0,104.8322
45.0,104.8322
45.0,104.8322
45.0,104.8307
45.0,104.8291
45.0,104.8307
45.0,104.826
45.0,104.826
45.0,104.8276
45.0,104.8276
45.0,104.8322
45.0,104.8307
45.0,104.8291
45.0,104.8291
45.0,104.8276
45.0,104.8291
45.0,104.8291
45.0,104.8291
45.0,104.8291
45.0,104.8276
45.0,104.8291
45.0,104.8291
45.0,104.826
45.0,104.8291
45.0,104.8291
45.0,104.8291
45.0,104.8322
45.0,104.8307
45.0,104.8276
45.0,104.8276
45.0,104.826
45.0,104.8276
45.0,104.8322
45.0,104.8322
45.0,104.8307
45.0,104.8307
45.0,104.8307
45.0,104.8322
45.0,104.8229
45.0,104.8229
45.0,104.8291
45.0,104.8276
45.0,104.8338
45.0,104.8307
45.0,104.8276
45.0,104.8276
45.0,104.8213
45.0,104.8245
45.0,104.8291
45.0,104.826
45.0,104.8307
45.0,104.8322
45.0,104.8229
45.0,104.8245
45.0,104.8229
45.0,104.826
45.0,104.8229
45.0,104.8229
45.0,104.8307
45.0,104.8276
45.0,104.8276
45.0,104.8291
45.0,104.8245
45.0,104.8291
45.0,104.8291
45.0,104.8276
45.0,104.8291
45.0,104.8213
45.0,104.8213
45.0,104.8229
45.0,104.8213
45.0,104.8276
45.0,104.826
45.0,104.8276
45.0,104.8276
45.0,104.826
45.0,104.8245
45.0,104.8229
45.0,104.8245
45.0,104.8213
45.0,104.8213
45.0,104.8245
45.0,104.8213
45.0,104.826
45.0,104.8229
45.0,104.8245
45.0,104.8245
45.0,104.8213
45.0,104.8245
45.0,104.8229
45.0,104.8229
45.0,104.8229
45.0,104.8198
45.0,104.8198
45.0,104.8213
45.0,104.8229
45.0,104.8229
45.0,104.8213
45.0,104.8276
45.0,104.8229
45.0,104.8245
45.0,104.8229
45.0,104.8213
45.0,104.8198
45.0,104.8245
45.0,104.8245
45.0,104.8198
45.0,104.8198
45.0,104.8213
45.0,104.8198
45.0,104.8182
45.0,104.8182
45.0,104.8182
45.0,104.8198
45.0,104.8245
45.0,104.8213
45.0,104.8198
45.0,104.8182
45.0,104.8182
45.0,104.8213
45.0,104.8198
45.0,104.8213
45.0,104.8198
45.0,104.8213
45.0,104.8213
45.0,104.8213
45.0,104.8213
45.0,104.826
45.0,104.8167
45.0,104.8229
45.0,104.8245
45.0,104.8245
45.0,104.8213
45.0,104.8229
45.0,104.8167
45.0,104.8198
45.0,104.8229
45.0,104.8229
45.0,104.8245
45.0,104.8229
45.0,104.8229
45.0,104.8213
45.0,104.8213
45.0,104.8229
45.0,104.8213
45.0,104.8198
45.0,104.8245
45.0,104.8182
45.0,104.8182
45.0,104.8213
45.0,104.8198
45.0,104.8213
45.0,104.8229
45.0,104.8213
45.0,104.8229
45.0,104.8198
45.0,104.8198
45.0,104.8198
45.0,104.8182
45.0,104.8198
45.0,104.8213
45.0,104.8229
45.0,104.8229
45.0,104.8182
45.0,104.8182
45.0,104.8182
45.0,104.8198
45.0,104.8198
45.0,104.8213
45.0,104.8229
45.0,104.8198
45.0,104.8198
45.0,104.8182
45.0,104.8198
45.0,104.8182
45.0,104.8167
45.0,104.8229
45.0,104.8213
45.0,104.8198
45.0,104.8229
45.0,104.8151
45.0,104.8151
45.0,104.8167
45.0,104.8167
45.0,104.8229
45.0,104.8198
45.0,104.8213
45.0,104.8182
45.0,104.8167
45.0,104.8182
45.0,104.8167
45.0,104.8182
45.0,104.8198
45.0,104.8213
45.0,104.8151
45.0,104.8136
45.0,104.8182
45.0,104.812
45.0,104.812
45.0,104.8198
45.0,104.8182
45.0,104.8182
45.0,104.8198
45.0,104.8167
45.0,104.8151
45.0,104.8151
45.0,104.8151
45.0,104.8182
45.0,104.8167
45.0,104.8213
45.0,104.8229
45.0,104.8151
45.0,104.8151
45.0,104.8167
45.0,104.8136
45.0,104.8182
45.0,104.8182
45.0,104.8198
45.0,104.8198
45.0,104.8136
45.0,104.8167
45.0,104.812
45.0,104.812
45.0,104.8151
45.0,104.8151
45.0,104.8198
45.0,104.8167
45.0,104.8167
45.0,104.8136
45.0,104.8182
45.0,104.8167
45.0,104.8151
45.0,104.8198
45.0,104.8136
45.0,104.8151
45.0,104.8104
45.0,104.8104
45.0,104.8136
45.0,104.812
50.0,104.8213
50.0,104.8167
50.0,104.812
50.0,104.8229
50.0,104.8385
50.0,104.8556
50.0,104.8369
50.0,104.8587
50.0,104.8525
50.0,104.8509
50.0,104.8696
50.0,104.8509
50.0,104.8696
50.0,104.854
50.0,104.8696
50.0,104.8447
50.0,104.8571
50.0,104.8478
50.0,104.8478
50.0,104.8665
50.0,104.8634
50.0,104.8805
50.0,104.8712
50.0,104.8712
50.0,104.8696
50.0,104.8649
50.0,104.8634
50.0,104.8603
50.0,104.8712
50.0,104.8603
50.0,104.8743
50.0,104.8727
50.0,104.8603
50.0,104.868
50.0,104.8603
50.0,104.8618
50.0,104.8618
50.0,104.8634
50.0,104.8712
50.0,104.8634
50.0,104.8587
50.0,104.8603
50.0,104.8571
50.0,104.8649
50.0,104.8618
50.0,104.8431
50.0,104.8898
50.0,104.8665
50.0,104.8789
50.0,104.868
50.0,104.8774
50.0,104.8805
50.0,104.8525
50.0,104.8712
50.0,104.8587
50.0,104.8571
50.0,104.8634
50.0,104.8587
50.0,104.8696
50.0,104.8649
50.0,104.8821
50.0,104.8758
50.0,104.8649
50.0,104.8758
50.0,104.8587
50.0,104.8649
50.0,104.8634
50.0,104.8618
50.0,104.8712
50.0,104.8634
50.0,104.8774
50.0,104.868
50.0,104.8665
50.0,104.8696
50.0,104.8649
50.0,104.8696
50.0,104.8649
50.0,104.868
50.0,104.8649
50.0,104.8649
50.0,104.868
50.0,104.8649
50.0,104.8696
50.0,104.8743
50.0,104.8696
50.0,104.8696
50.0,104.868
50.0,104.8696
50.0,104.8665
50.0,104.8665
50.0,104.8665
50.0,104.868
50.0,104.8665
50.0,104.868
50.0,104.8696
50.0,104.8649
50.0,104.8649
50.0,104.868
50.0,104.8649
50.0,104.8696
50.0,104.8727
50.0,104.8712
50.0,104.868
50.0,104.868
50.0,104.8665
50.0,104.8665
50.0,104.8665
50.0,104.8665
50.0,104.868
50.0,104.8665
50.0,104.8665
50.0,104.868
50.0,104.8665
50.0,104.8696
50.0,104.8696
50.0,104.8696
50.0,104.8743
50.0,104.868
50.0,104.8727
50.0,104.8665
50.0,104.8665
50.0,104.8696
50.0,104.8665
50.0,104.8774
50.0,104.8712
50.0,104.8727
50.0,104.8805
50.0,104.868
50.0,104.921
50.0,104.8603
50.0,104.8852
50.0,104.8494
50.0,104.8603
50.0,104.8525
50.0,104.8509
50.0,104.868
50.0,104.8525
50.0,104.907
50.0,104.8929
50.0,104.8852
50.0,104.8883
50.0,104.8836
50.0,104.8976
50.0,104.8509
50.0,104.8649
50.0,104.8556
50.0,104.8556
50.0,104.8712
50.0,104.8603
50.0,104.8836
50.0,104.8727
50.0,104.8914
50.0,104.8789
50.0,104.8789
50.0,104.8883
50.0,104.8618
50.0,104.8758
50.0,104.868
50.0,104.8649
50.0,104.8743
50.0,104.8665
50.0,104.8618
50.0,104.8696
50.0,104.8665
50.0,104.8789
50.0,104.8696
50.0,104.8789
50.0,104.8805
50.0,104.8665
50.0,104.8743
50.0,104.8696
50.0,104.868
50.0,104.868
50.0,104.8774
50.0,104.8712
50.0,104.8758
50.0,104.8805
50.0,104.8696
50.0,104.8712
50.0,104.8665
50.0,104.8665
50.0,104.8649
50.0,104.8634
50.0,104.8696
50.0,104.8649
50.0,104.868
50.0,104.8727
50.0,104.868
50.0,104.868
50.0,104.8712
50.0,104.868
50.0,104.8758
50.0,104.8696
50.0,104.8712
50.0,104.8696
50.0,104.8696
50.0,104.8712
50.0,104.868
50.0,104.8696
50.0,104.8727
50.0,104.8712
50.0,104.8696
50.0,104.8696
50.0,104.868
50.0,104.8665
50.0,104.868
50.0,104.8727
50.0,104.8696
50.0,104.868
50.0,104.8712
50.0,104.8665
50.0,104.8649
50.0,104.8665
50.0,104.8634
50.0,104.8696
50.0,104.8649
50.0,104.8758
50.0,104.8727
50.0,104.8634
50.0,104.8665
50.0,104.8634
50.0,104.8649
50.0,104.8649
50.0,104.8649
50.0,104.8665
50.0,104.8649
50.0,104.8696
50.0,104.8649
50.0,104.8665
50.0,104.8712
50.0,104.8649
50.0,104.8696
50.0,104.8634
50.0,104.8634
50.0,104.8649
50.0,104.8634
50.0,104.8696
50.0,104.8649
50.0,104.868
50.0,104.8743
50.0,104.8634
50.0,104.868
50.0,104.8634
50.0,104.8634
50.0,104.8634
50.0,104.8618
50.0,104.8696
50.0,104.8634
50.0,104.8618
50.0,104.8649
50.0,104.8618
50.0,104.8618
50.0,104.8618
50.0,104.8665
50.0,104.8634
50.0,104.868
50.0,104.8696
50.0,104.8618
50.0,104.8649
50.0,104.8603
50.0,104.8603
50.0,104.8634
50.0,104.8603
50.0,104.8587
50.0,104.8649
50.0,104.8603
50.0,104.8712
50.0,104.8649
50.0,104.8649
50.0,104.868
50.0,104.8571
50.0,104.8618
50.0,104.8603
50.0,104.8603
50.0,104.8649
50.0,104.8587
50.0,104.8634
50.0,104.8587
50.0,104.8634
50.0,104.8665
50.0,104.8587
50.0,104.868
50.0,104.8587
50.0,104.8587
50.0,104.8571
50.0,104.854
50.0,104.8618
50.0,104.8556
50.0,104.8665
50.0,104.8712
50.0,104.8556
50.0,104.8603
50.0,104.854
50.0,104.8556
50.0,104.8556
50.0,104.8556
50.0,104.8665
50.0,104.8618
50.0,104.8634
50.0,104.8649
50.0,104.8556
50.0,104.8556
50.0,104.8556
50.0,104.8556
50.0,104.8618
50.0,104.8571
50.0,104.8634
50.0,104.8587
50.0,104.8603
50.0,104.8587
50.0,104.8556
50.0,104.8603
50.0,104.8571
50.0,104.8571
50.0,104.8618
50.0,104.8556
50.0,104.8618
50.0,104.8556
50.0,104.8603
50.0,104.8634
50.0,104.8556
50.0,104.8634
50.0,104.8556
50.0,104.854
50.0,104.8603
50.0,104.854
50.0,104.8603
50.0,104.8556
50.0,104.8618
50.0,104.8649
50.0,104.854
50.0,104.8587
50.0,104.854
50.0,104.8556
50.0,104.8571
50.0,104.8556
50.0,104.8618
50.0,104.8556
50.0,104.8525
50.0,104.8665
50.0,104.8556
50.0,104.8618
50.0,104.8649
50.0,104.854
50.0,104.8603
50.0,104.8556
50.0,104.854
50.0,104.8634
50.0,104.854
50.0,104.8665
50.0,104.8556
50.0,104.8571
50.0,104.8618
50.0,104.8525
50.0,104.8587
50.0,104.854
50.0,104.854
50.0,104.8603
50.0,104.854
50.0,104.8587
50.0,104.8525
50.0,104.8571
50.0,104.8618
50.0,104.854
50.0,104.8665
50.0,104.854
50.0,104.8556
50.0,104.8556
50.0,104.8556
50.0,104.8603
50.0,104.8556
50.0,104.8665
50.0,104.868
50.0,104.854
50.0,104.8634
50.0,104.8525
50.0,104.854
50.0,104.8571
50.0,104.854
50.0,104.854
50.0,104.8618
50.0,104.854
50.0,104.8696
50.0,104.8587
50.0,104.8603
50.0,104.8618
50.0,104.854
50.0,104.8571
50.0,104.8556
50.0,104.854
50.0,104.8587
50.0,104.8587
50.0,104.8587
50.0,104.8556
50.0,104.8587
50.0,104.8603
50.0,104.854
50.0,104.8634
50.0,104.8525
50.0,104.8525
50.0,104.8525
50.0,104.8509
50.0,104.8603
50.0,104.8556
50.0,104.868
50.0,104.8727
50.0,104.854
50.0,104.8649
50.0,104.8525
50.0,104.854
50.0,104.8556
50.0,104.854
50.0,104.8696
50.0,104.8587
50.0,104.868
50.0,104.8696
50.0,104.8556
50.0,104.8603
50.0,104.854
50.0,104.8571
50.0,104.8649
50.0,104.854
50.0,104.8556
50.0,104.8618
50.0,104.8556
50.0,104.868
50.0,104.8587
50.0,104.8618
50.0,104.868
50.0,104.854
50.0,104.8634
50.0,104.8556
50.0,104.8556
50.0,104.8587
50.0,104.8556
50.0,104.8618
50.0,104.8556
50.0,104.8618
50.0,104.8665
50.0,104.8556
50.0,104.8665
50.0,104.854
50.0,104.8556
50.0,104.854
50.0,104.854
50.0,104.8665
50.0,104.8587
50.0,104.8727
50.0,104.8727
50.0,104.8556
55.0,104.868
55.0,104.826
55.0,104.8167
55.0,104.8525
55.0,104.8914
55.0,104.9443
55.0,105.0144
55.0,105.0611
55.0,105.1249
55.0,105.1747
55.0,105.2136
55.0,105.2681
55.0,105.3008
55.0,105.3351
55.0,105.3678
55.0,105.402
55.0,105.4238
55.0,105.4487
55.0,105.4658
55.0,105.4861
55.0,105.5063
55.0,105.5188
55.0,105.5375
55.0,105.5499
55.0,105.5577
55.0,105.5701
55.0,105.5733
55.0,105.5826
55.0,105.581
55.0,105.5919
55.0,105.5935
55.0,105.5982
55.0,105.6044
55.0,105.6028
55.0,105.606
55.0,105.6122
55.0,105.6106
55.0,105.6153
55.0,105.6137
55.0,105.6153
55.0,105.6168
55.0,105.6168
55.0,105.6137
55.0,105.6137
55.0,105.6106
55.0,105.6122
55.0,105.6091
55.0,105.6106
55.0,105.6122
55.0,105.6091
55.0,105.6075
55.0,105.6044
55.0,105.606
55.0,105.6013
55.0,105.5997
55.0,105.6013
55.0,105.5982
55.0,105.5982
55.0,105.6013
55.0,105.5966
55.0,105.5951
55.0,105.5919
55.0,105.5935
55.0,105.5919
55.0,105.5919
55.0,105.5951
55.0,105.5935
55.0,105.5935
55.0,105.5982
55.0,105.5873
55.0,105.5935
55.0,105.5842
55.0,105.5873
55.0,105.5873
55.0,105.5888
55.0,105.5951
55.0,105.5873
55.0,105.5919
55.0,105.5951
55.0,105.5857
55.0,105.5935
55.0,105.5951
55.0,105.5857
55.0,105.5873
55.0,105.5826
55.0,105.5966
55.0,105.5904
55.0,105.5842
55.0,105.5966
55.0,105.5904
55.0,105.5904
55.0,105.5982
55.0,105.5857
55.0,105.5919
55.0,105.5888
55.0,105.5888
55.0,105.5919
55.0,105.5888
55.0,105.5997
55.0,105.5919
55.0,105.5935
55.0,105.6013
55.0,105.5919
55.0,105.5997
55.0,105.5919
55.0,105.5919
55.0,105.5935
55.0,105.5919
55.0,105.6044
55.0,105.5951
55.0,105.5997
55.0,105.6044
55.0,105.5935
55.0,105.6028
55.0,105.5919
55.0,105.5951
55.0,105.5966
55.0,105.5951
55.0,105.6091
55.0,105.5997
55.0,105.606
55.0,105.6075
55.0,105.5966
55.0,105.606
55.0,105.5951
55.0,105.5966
55.0,105.5997
55.0,105.5982
55.0,105.6106
55.0,105.6013
55.0,105.6044
55.0,105.6122
55.0,105.5982
55.0,105.6013
55.0,105.6013
55.0,105.5997
55.0,105.6013
55.0,105.5966
55.0,105.6153
55.0,105.6013
55.0,105.6044
55.0,105.6137
55.0,105.6028
55.0,105.606
55.0,105.6028
55.0,105.6013
55.0,105.606
55.0,105.5997
55.0,105.6168
55.0,105.6044
55.0,105.6122
55.0,105.6168
55.0,105.606
55.0,105.6153
55.0,105.6044
55.0,105.6044
55.0,105.6075
55.0,105.6044
55.0,105.606
55.0,105.6075
55.0,105.606
55.0,105.62
55.0,105.6091
55.0,105.62
55.0,105.62
55.0,105.6106
55.0,105.6184
55.0,105.6044
55.0,105.6091
55.0,105.6106
55.0,105.606
55.0,105.6231
55.0,105.6106
55.0,105.6153
55.0,105.6246
55.0,105.6106
55.0,105.6137
55.0,105.6106
55.0,105.6075
55.0,105.6122
55.0,105.6075
55.0,105.6246
55.0,105.6122
55.0,105.6091
55.0,105.6231
55.0,105.6122
55.0,105.6184
55.0,105.6231
55.0,105.6106
55.0,105.6215
55.0,105.606
55.0,105.6137
55.0,105.6122
55.0,105.6091
55.0,105.6262
55.0,105.6153
55.0,105.6246
55.0,105.6277
55.0,105.6122
55.0,105.6262
55.0,105.6122
55.0,105.6153
55.0,105.6246
55.0,105.6137
55.0,105.6137
55.0,105.6168
55.0,105.6137
55.0,105.6277
55.0,105.6184
55.0,105.6277
55.0,105.6168
55.0,105.6168
55.0,105.6184
55.0,105.6137
55.0,105.6137
55.0,105.6153
55.0,105.6122
55.0,105.6293
55.0,105.6168
55.0,105.6231
55.0,105.6293
55.0,105.6137
55.0,105.6246
55.0,105.6137
55.0,105.6153
55.0,105.6184
55.0,105.6137
55.0,105.6277
55.0,105.62
55.0,105.6262
55.0,105.6309
55.0,105.6184
55.0,105.6309
55.0,105.6184
55.0,105.6231
55.0,105.6277
55.0,105.6184
55.0,105.62
55.0,105.6231
55.0,105.6168
55.0,105.6355
55.0,105.62
55.0,105.6309
55.0,105.6324
55.0,105.6215
55.0,105.6293
55.0,105.62
55.0,105.6184
55.0,105.6215
55.0,105.62
55.0,105.634
55.0,105.6215
55.0,105.6309
55.0,105.6309
55.0,105.62
55.0,105.6309
55.0,105.6184
55.0,105.6231
55.0,105.62
55.0,105.62
55.0,105.6324
55.0,105.6215
55.0,105.6277
55.0,105.6371
55.0,105.6215
55.0,105.6324
55.0,105.6168
55.0,105.6246
55.0,105.6293
55.0,105.6231
55.0,105.6262
55.0,105.6246
55.0,105.6262
55.0,105.6371
55.0,105.6246
55.0,105.6355
55.0,105.6371
55.0,105.6262
55.0,105.6309
55.0,105.6246
55.0,105.6262
55.0,105.6262
55.0,105.62
55.0,105.6371
55.0,105.6246
55.0,105.634
55.0,105.6371
55.0,105.6246
55.0,105.634
55.0,105.6215
55.0,105.6215
55.0,105.6262
55.0,105.6168
55.0,105.634
55.0,105.6215
55.0,105.6324
55.0,105.6309
55.0,105.6231
55.0,105.6324
55.0,105.62
55.0,105.6231
55.0,105.6215
55.0,105.6184
55.0,105.6324
55.0,105.6215
55.0,105.6262
55.0,105.6309
55.0,105.6215
55.0,105.6277
55.0,105.62
55.0,105.6215
55.0,105.6262
55.0,105.6215
55.0,105.6324
55.0,105.6262
55.0,105.6309
55.0,105.6309
55.0,105.6231
55.0,105.6293
55.0,105.62
55.0,105.6231
55.0,105.6262
55.0,105.6231
55.0,105.6309
55.0,105.6277
55.0,105.6215
55.0,105.6324
55.0,105.6246
55.0,105.6309
55.0,105.6309
55.0,105.6262
55.0,105.6293
55.0,105.6246
55.0,105.6231
55.0,105.6262
55.0,105.6231
55.0,105.6309
55.0,105.6277
55.0,105.6309
55.0,105.6309
55.0,105.6277
55.0,105.6293
55.0,105.6246
55.0,105.6246
55.0,105.6262
55.0,105.6215
55.0,105.6293
55.0,105.6246
55.0,105.6262
55.0,105.6277
55.0,105.6246
55.0,105.6262
55.0,105.6231
55.0,105.6231
55.0,105.6262
55.0,105.6231
55.0,105.6262
55.0,105.6246
55.0,105.6231
55.0,105.6246
55.0,105.6231
55.0,105.6215
55.0,105.6215
55.0,105.6231
55.0,105.6215
55.0,105.6231
55.0,105.6215
55.0,105.6215
55.0,105.6215
55.0,105.6215
55.0,105.62
55.0,105.6215
55.0,105.6231
55.0,105.6215
55.0,105.6215
55.0,105.6231
55.0,105.62
55.0,105.6231
55.0,105.62
55.0,105.6215
55.0,105.62
55.0,105.6215
55.0,105.6293
55.0,105.6215
55.0,105.62
55.0,105.6262
55.0,105.62
55.0,105.62
55.0,105.62
55.0,105.6215
55.0,105.62
55.0,105.6215
55.0,105.62
55.0,105.62
55.0,105.62
55.0,105.62
55.0,105.62
55.0,105.62
55.0,105.6277
55.0,105.6184
55.0,105.6215
55.0,105.6168
55.0,105.62
55.0,105.6184
55.0,105.62
55.0,105.6277
55.0,105.62
55.0,105.62
55.0,105.634
55.0,105.6184
55.0,105.6215
55.0,105.62
55.0,105.62
55.0,105.6215
55.0,105.6215
55.0,105.6324
55.0,105.6215
55.0,105.62
55.0,105.6293
55.0,105.62
55.0,105.6215
55.0,105.62
55.0,105.62
55.0,105.6184
55.0,105.6184
55.0,105.6371
55.0,105.6215
55.0,105.6215
55.0,105.6371
55.0,105.62
55.0,105.6184
55.0,105.6168
55.0,105.6168
55.0,105.6262
55.0,105.6184
55.0,105.634
55.0,105.6231
55.0,105.6184
55.0,105.6277
55.0,105.6168
55.0,105.6168
55.0,105.6168
55.0,105.6184
55.0,105.6168
55.0,105.6168
55.0,105.6231
55.0,105.6168
55.0,105.6168
55.0,105.6309
55.0,105.6153
60.0,105.6184
60.0,105.0642
60.0,104.8883
60.0,104.9817
60.0,105.114
60.0,105.3179
60.0,105.4954
60.0,105.6869
60.0,105.8379
60.0,106.0076
60.0,106.1072
60.0,106.2645
60.0,106.3392
60.0,106.4373
60.0,106.5027
60.0,106.568
60.0,106.5883
60.0,106.635
60.0,106.6505
60.0,106.6723
60.0,106.6926
60.0,106.691
60.0,106.7035
60.0,106.7004
60.0,106.6988
60.0,106.6941
60.0,106.6895
60.0,106.6817
60.0,106.6786
60.0,106.6583
60.0,106.6692
60.0,106.6552
60.0,106.6505
60.0,106.6599
60.0,106.649
60.0,106.6552
60.0,106.6537
60.0,106.6521
60.0,106.6568
60.0,106.6459
60.0,106.6537
60.0,106.6474
60.0,106.6521
60.0,106.6568
60.0,106.6552
60.0,106.6568
60.0,106.6521
60.0,106.6583
60.0,106.6568
60.0,106.6568
60.0,106.6661
60.0,106.6583
60.0,106.6646
60.0,106.6661
60.0,106.6677
60.0,106.6708
60.0,106.6723
60.0,106.6755
60.0,106.6739
60.0,106.6723
60.0,106.6739
60.0,106.6723
60.0,106.6723
60.0,106.6832
60.0,106.6755
60.0,106.6832
60.0,106.6832
60.0,106.6848
60.0,106.6848
60.0,106.6832
60.0,106.6879
60.0,106.6848
60.0,106.6848
60.0,106.6941
60.0,106.6895
60.0,106.691
60.0,106.6988
60.0,106.6941
60.0,106.6973
60.0,106.691
60.0,106.6988
60.0,106.6973
60.0,106.6926
60.0,106.7035
60.0,106.6957
60.0,106.7019
60.0,106.7035
60.0,106.705
60.0,106.705
60.0,106.7004
60.0,106.705
60.0,106.7019
60.0,106.705
60.0,106.7097
60.0,106.705
60.0,106.7144
60.0,106.7159
60.0,106.7159
60.0,106.7175
60.0,106.7159
60.0,106.7159
60.0,106.7175
60.0,106.7144
60.0,106.7159
60.0,106.7175
60.0,106.7175
60.0,106.7222
60.0,106.7175
60.0,106.7237
60.0,106.7237
60.0,106.7222
60.0,106.7268
60.0,106.7222
60.0,106.7284
60.0,106.7237
60.0,106.7206
60.0,106.7315
60.0,106.7222
60.0,106.7284
60.0,106.7284
60.0,106.7315
60.0,106.7284
60.0,106.7253
60.0,106.7299
60.0,106.7268
60.0,106.7284
60.0,106.7331
60.0,106.7315
60.0,106.7331
60.0,106.7346
60.0,106.7331
60.0,106.7362
60.0,106.7331
60.0,106.7331
60.0,106.7346
60.0,106.7346
60.0,106.7393
60.0,106.7377
60.0,106.7393
60.0,106.7377
60.0,106.7393
60.0,106.7393
60.0,106.7424
60.0,106.7393
60.0,106.7424
60.0,106.744
60.0,106.7455
60.0,106.7455
60.0,106.7424
60.0,106.7455
60.0,106.7455
60.0,106.7424
60.0,106.7486
60.0,106.7455
60.0,106.7502
60.0,106.7486
60.0,106.7471
60.0,106.7502
60.0,106.7486
60.0,106.7517
60.0,106.7471
60.0,106.7455
60.0,106.7471
60.0,106.7502
60.0,106.7471
60.0,106.7533
60.0,106.7517
60.0,106.7533
60.0,106.7549
60.0,106.7533
60.0,106.7564
60.0,106.7517
60.0,106.7564
60.0,106.7549
60.0,106.758
60.0,106.7595
60.0,106.7564
60.0,106.7626
60.0,106.7564
60.0,106.7595
60.0,106.7595
60.0,106.7549
60.0,106.7626
60.0,106.7611
60.0,106.7626
60.0,106.7658
60.0,106.7626
60.0,106.7673
60.0,106.7549
60.0,106.7642
60.0,106.7642
60.0,106.7549
60.0,106.7673
60.0,106.7673
60.0,106.7704
60.0,106.7704
60.0,106.7642
60.0,106.7704
60.0,106.7564
60.0,106.7642
60.0,106.7673
60.0,106.758
60.0,106.7735
60.0,106.7704
60.0,106.7751
60.0,106.7751
60.0,106.7704
60.0,106.7735
60.0,106.7766
60.0,106.7735
60.0,106.7766
60.0,106.7611
60.0,106.7735
60.0,106.772
60.0,106.7642
60.0,106.7782
60.0,106.7735
60.0,106.7782
60.0,106.7798
60.0,106.7782
60.0,106.7798
60.0,106.7642
60.0,106.7798
60.0,106.7766
60.0,106.7626
60.0,106.7829
60.0,106.7735
60.0,106.7829
60.0,106.7829
60.0,106.7829
60.0,106.7844
60.0,106.7658
60.0,106.7844
60.0,106.7813
60.0,106.7642
60.0,106.786
60.0,106.7798
60.0,106.786
60.0,106.7844
60.0,106.7813
60.0,106.786
60.0,106.7673
60.0,106.7829
60.0,106.7829
60.0,106.7689
60.0,106.7875
60.0,106.7829
60.0,106.786
60.0,106.7891
60.0,106.7813
60.0,106.7891
60.0,106.7875
60.0,106.786
60.0,106.7891
60.0,106.7751
60.0,106.7875
60.0,106.7844
60.0,106.772
60.0,106.7891
60.0,106.7813
60.0,106.7907
60.0,106.7922
60.0,106.7907
60.0,106.7907
60.0,106.7735
60.0,106.7891
60.0,106.7813
60.0,106.7735
60.0,106.7907
60.0,106.7813
60.0,106.7907
60.0,106.7922
60.0,106.7922
60.0,106.7922
60.0,106.7766
60.0,106.7922
60.0,106.7891
60.0,106.7751
60.0,106.7938
60.0,106.7907
60.0,106.7938
60.0,106.7969
60.0,106.7922
60.0,106.7953
60.0,106.7782
60.0,106.7922
60.0,106.7907
60.0,106.7798
60.0,106.7938
60.0,106.7938
60.0,106.7938
60.0,106.7938
60.0,106.7922
60.0,106.7953
60.0,106.7829
60.0,106.7938
60.0,106.7922
60.0,106.7813
60.0,106.7938
60.0,106.7907
60.0,106.7953
60.0,106.7938
60.0,106.7938
60.0,106.7922
60.0,106.7813
60.0,106.7907
60.0,106.7907
60.0,106.7813
60.0,106.7938
60.0,106.786
60.0,106.7953
60.0,106.7953
60.0,106.7953
60.0,106.7938
60.0,106.7813
60.0,106.7953
60.0,106.786
60.0,106.786
60.0,106.7969
60.0,106.7891
60.0,106.786
60.0,106.7969
60.0,106.7938
60.0,106.7984
60.0,106.7984
60.0,106.7969
60.0,106.7969
60.0,106.7875
60.0,106.8
60.0,106.7984
60.0,106.7907
60.0,106.8
60.0,106.7969
60.0,106.8031
60.0,106.7969
60.0,106.8
60.0,106.7953
60.0,106.7875
60.0,106.7969
60.0,106.7953
60.0,106.7907
60.0,106.7984
60.0,106.7922
60.0,106.7984
60.0,106.8016
60.0,106.7969
60.0,106.8
60.0,106.7922
60.0,106.7984
60.0,106.7922
60.0,106.7938
60.0,106.7984
60.0,106.7953
60.0,106.7984
60.0,106.8
60.0,106.8
60.0,106.8031
60.0,106.7953
60.0,106.8031
60.0,106.7953
60.0,106.7938
60.0,106.8
60.0,106.7969
60.0,106.8
60.0,106.8031
60.0,106.8
60.0,106.8031
60.0,106.7953
60.0,106.8
60.0,106.8031
60.0,106.7938
60.0,106.8031
60.0,106.8
60.0,106.8031
60.0,106.8031
60.0,106.8047
60.0,106.8062
60.0,106.7953
60.0,106.8047
60.0,106.7969
60.0,106.7953
60.0,106.8062
60.0,106.7984
60.0,106.7969
60.0,106.8047
60.0,106.8
60.0,106.8016
60.0,106.8031
60.0,106.7984
60.0,106.8062
60.0,106.7984
60.0,106.8047
60.0,106.8
60.0,106.7984
60.0,106.8
60.0,106.8
60.0,106.8047
60.0,106.8047
60.0,106.8031
60.0,106.8016
60.0,106.7969
60.0,106.8031
60.0,106.8016
60.0,106.8031
60.0,106.8031
60.0,106.8031
60.0,106.8078
60.0,106.8062
60.0,106.8031
60.0,106.8109
60.0,106.8047
60.0,106.8062
60.0,106.8047
60.0,106.8031
60.0,106.8047
60.0,106.8062
60.0,106.8109
60.0,106.8078
60.0,106.8078
60.0,106.8047
60.0,106.8047
60.0,106.8062
60.0,106.8062
60.0,106.8047
60.0,106.8047
60.0,106.8078
60.0,106.8078
60.0,106.8031
60.0,106.8047
60.0,106.8078
60.0,106.8047
60.0,106.8078
60.0,106.8062
60.0,106.8047
60.0,106.8062
60.0,106.8062
60.0,106.8078
60.0,106.8062
60.0,106.8062
60.0,106.8093
60.0,106.8047
60.0,106.8109
60.0,106.814
60.0,106.8093
60.0,106.8062
60.0,106.8109
60.0,106.8047
60.0,106.8078
60.0,106.8062
60.0,106.8171
65.0,106.8031
65.0,105.4207
65.0,105.0066
65.0,105.223
65.0,105.5281
65.0,105.9282
65.0,106.2536
65.0,106.5929
65.0,106.8327
65.0,107.0802
65.0,107.2125
65.0,107.3636
65.0,107.4429
65.0,107.513
65.0,107.5566
65.0,107.5597
65.0,107.5815
65.0,107.569
65.0,107.5535
65.0,107.555
65.0,107.5332
65.0,107.5301
65.0,107.5177
65.0,107.5037
65.0,107.5146
65.0,107.5083
65.0,107.5192
65.0,107.5208
65.0,107.5192
65.0,107.527
65.0,107.5177
65.0,107.5177
65.0,107.5146
65.0,107.5192
65.0,107.5301
65.0,107.527
65.0,107.5473
65.0,107.5457
65.0,107.5301
65.0,107.5519
65.0,107.5582
65.0,107.5457
65.0,107.5644
65.0,107.5566
65.0,107.5504
65.0,107.5597
65.0,107.5504
65.0,107.5566
65.0,107.5644
65.0,107.5768
65.0,107.5815
65.0,107.5815
65.0,107.5846
65.0,107.5753
65.0,107.5784
65.0,107.5924
65.0,107.5753
65.0,107.5862
65.0,107.5799
65.0,107.5753
65.0,107.5924
65.0,107.5831
65.0,107.6033
65.0,107.6033
65.0,107.6017
65.0,107.608
65.0,107.594
65.0,107.5986
65.0,107.5908
65.0,107.5955
65.0,107.6049
65.0,107.6017
65.0,107.6173
65.0,107.6158
65.0,107.6158
65.0,107.622
65.0,107.6064
65.0,107.6095
65.0,107.6049
65.0,107.6126
65.0,107.6266
65.0,107.6142
65.0,107.6313
65.0,107.6266
65.0,107.6204
65.0,107.6344
65.0,107.6204
65.0,107.6298
65.0,107.622
65.0,107.6251
65.0,107.636
65.0,107.6251
65.0,107.6438
65.0,107.6375
65.0,107.636
65.0,107.6438
65.0,107.6313
65.0,107.6407
65.0,107.6329
65.0,107.6313
65.0,107.6438
65.0,107.636
65.0,107.65
65.0,107.6469
65.0,107.6422
65.0,107.6516
65.0,107.6391
65.0,107.6438
65.0,107.6344
65.0,107.6344
65.0,107.6453
65.0,107.6453
65.0,107.6578
65.0,107.6578
65.0,107.6562
65.0,107.6625
65.0,107.6422
65.0,107.6547
65.0,107.6422
65.0,107.6531
65.0,107.6609
65.0,107.6547
65.0,107.6656
65.0,107.6656
65.0,107.6562
65.0,107.6687
65.0,107.6516
65.0,107.664
65.0,107.6578
65.0,107.6609
65.0,107.6687
65.0,107.6593
65.0,107.6734
65.0,107.6687
65.0,107.6671
65.0,107.6749
65.0,107.6687
65.0,107.6687
65.0,107.6687
65.0,107.6469
65.0,107.6687
65.0,107.6687
65.0,107.6734
65.0,107.6734
65.0,107.6562
65.0,107.6827
65.0,107.6656
65.0,107.664
65.0,107.6609
65.0,107.6656
65.0,107.678
65.0,107.678
65.0,107.6578
65.0,107.6765
65.0,107.6656
65.0,107.6858
65.0,107.6811
65.0,107.6811
65.0,107.6874
65.0,107.6811
65.0,107.6765
65.0,107.6749
65.0,107.6718
65.0,107.6811
65.0,107.6858
65.0,107.6889
65.0,107.6889
65.0,107.6858
65.0,107.692
65.0,107.6749
65.0,107.6842
65.0,107.6811
65.0,107.6889
65.0,107.6967
65.0,107.6842
65.0,107.6998
65.0,107.6827
65.0,107.6827
65.0,107.7014
65.0,107.6998
65.0,107.6951
65.0,107.6936
65.0,107.6874
65.0,107.7014
65.0,107.6827
65.0,107.7029
65.0,107.6967
65.0,107.692
65.0,107.706
65.0,107.6951
65.0,107.6936
65.0,107.7029
65.0,107.6889
65.0,107.6951
65.0,107.6951
65.0,107.692
65.0,107.6983
65.0,107.7029
65.0,107.7092
65.0,107.7029
65.0,107.7029
65.0,107.7107
65.0,107.6967
65.0,107.6967
65.0,107.6905
65.0,107.6998
65.0,107.7014
65.0,107.6983
65.0,107.7107
65.0,107.7076
65.0,107.6998
65.0,107.7123
65.0,107.6983
65.0,107.7045
65.0,107.7014
65.0,107.706
65.0,107.7107
65.0,107.6998
65.0,107.7138
65.0,107.7107
65.0,107.6998
65.0,107.7154
65.0,107.7014
65.0,107.7029
65.0,107.7029
65.0,107.7014
65.0,107.7076
65.0,107.706
65.0,107.7138
65.0,107.7092
65.0,107.7092
65.0,107.7216
65.0,107.7107
65.0,107.7092
65.0,107.7076
65.0,107.706
65.0,107.706
65.0,107.7092
65.0,107.7201
65.0,107.7107
65.0,107.7107
65.0,107.7169
65.0,107.7107
65.0,107.7107
65.0,107.7216
65.0,107.7092
65.0,107.7169
65.0,107.7107
65.0,107.7216
65.0,107.7123
65.0,107.7123
65.0,107.7185
65.0,107.7092
65.0,107.7154
65.0,107.7092
65.0,107.7107
65.0,107.7154
65.0,107.7138
65.0,107.7247
65.0,107.7169
65.0,107.7154
65.0,107.7216
65.0,107.7107
65.0,107.7185
65.0,107.7092
65.0,107.7216
65.0,107.7154
65.0,107.7185
65.0,107.7232
65.0,107.7201
65.0,107.7201
65.0,107.7294
65.0,107.7169
65.0,107.7185
65.0,107.7154
65.0,107.7232
65.0,107.7216
65.0,107.7232
65.0,107.7341
65.0,107.7216
65.0,107.7247
65.0,107.7294
65.0,107.7247
65.0,107.7294
65.0,107.7263
65.0,107.7278
65.0,107.7232
65.0,107.7201
65.0,107.7247
65.0,107.7232
65.0,107.731
65.0,107.7263
65.0,107.7294
65.0,107.7294
65.0,107.7294
65.0,107.7247
65.0,107.7247
65.0,107.7232
65.0,107.7294
65.0,107.7216
65.0,107.731
65.0,107.7294
65.0,107.7263
65.0,107.7294
65.0,107.7263
65.0,107.7232
65.0,107.7294
65.0,107.7232
65.0,107.731
65.0,107.7278
65.0,107.7294
65.0,107.7325
65.0,107.7263
65.0,107.7247
65.0,107.731
65.0,107.7232
65.0,107.731
65.0,107.7263
65.0,107.731
65.0,107.7294
65.0,107.7247
65.0,107.731
65.0,107.7294
65.0,107.7294
65.0,107.7247
65.0,107.7263
65.0,107.7263
65.0,107.731
65.0,107.731
65.0,107.731
65.0,107.7278
65.0,107.7356
65.0,107.7278
65.0,107.731
65.0,107.7356
65.0,107.7294
65.0,107.7325
65.0,107.7325
65.0,107.7247
65.0,107.7325
65.0,107.7294
65.0,107.7356
65.0,107.7325
65.0,107.7325
65.0,107.7356
65.0,107.7403
65.0,107.7294
65.0,107.7341
65.0,107.7247
65.0,107.7294
65.0,107.7341
65.0,107.7341
65.0,107.7403
65.0,107.7434
65.0,107.7418
65.0,107.7372
65.0,107.7294
65.0,107.731
65.0,107.7387
65.0,107.7325
65.0,107.7434
65.0,107.7403
65.0,107.7403
65.0,107.7403
65.0,107.7403
65.0,107.7325
65.0,107.7372
65.0,107.7341
65.0,107.745
65.0,107.7418
65.0,107.7403
65.0,107.745
65.0,107.7372
65.0,107.7356
65.0,107.7465
65.0,107.7372
65.0,107.7403
65.0,107.7403
65.0,107.7403
65.0,107.7418
65.0,107.7387
65.0,107.7434
65.0,107.7372
65.0,107.7387
65.0,107.7465
65.0,107.7418
65.0,107.7356
65.0,107.7418
65.0,107.7387
65.0,107.7372
65.0,107.7372
65.0,107.7341
65.0,107.7434
65.0,107.731
65.0,107.7434
65.0,107.7372
65.0,107.7403
65.0,107.745
65.0,107.7418
65.0,107.7403
65.0,107.7372
65.0,107.7356
65.0,107.7403
65.0,107.7387
65.0,107.7465
65.0,107.745
65.0,107.7418
65.0,107.745
65.0,107.7434
65.0,107.7418
65.0,107.7403
65.0,107.7418
65.0,107.7418
65.0,107.7434
65.0,107.7465
65.0,107.7434
65.0,107.7403
65.0,107.7527
65.0,107.745
65.0,107.745
65.0,107.7434
65.0,107.7465
65.0,107.745
65.0,107.7465
65.0,107.7418
65.0,107.745
65.0,107.745
65.0,107.7465
65.0,107.7481
65.0,107.7481
65.0,107.7496
65.0,107.745
65.0,107.745
65.0,107.7465
65.0,107.745
65.0,107.7465
65.0,107.7465
65.0,107.7496
65.0,107.7481
65.0,107.7481
65.0,107.7543
65.0,107.7512
65.0,107.7481
65.0,107.7496
65.0,107.7465
65.0,107.7481
65.0,107.7465
65.0,107.7481
65.0,107.7527
65.0,107.7527
70.0,107.7527
70.0,105.6916
70.0,105.1311
70.0,105.5297
70.0,106.0169
70.0,106.6428
70.0,107.0833
70.0,107.5208
70.0,107.7979
70.0,108.0267
70.0,108.1201
70.0,108.2136
70.0,108.2478
70.0,108.2462
70.0,108.2322
70.0,108.2136
70.0,108.2011
70.0,108.1964
70.0,108.1886
70.0,108.184
70.0,108.184
70.0,108.1871
70.0,108.1902
70.0,108.1933
70.0,108.2042
70.0,108.2042
70.0,108.2073
70.0,108.2182
70.0,108.2182
70.0,108.2245
70.0,108.226
70.0,108.2322
70.0,108.2369
70.0,108.24
70.0,108.2494
70.0,108.2494
70.0,108.2525
70.0,108.2634
70.0,108.2587
70.0,108.2665
70.0,108.2665
70.0,108.2696
70.0,108.2743
70.0,108.2743
70.0,108.2805
70.0,108.2852
70.0,108.2836
70.0,108.2929
70.0,108.2898
70.0,108.2961
70.0,108.3007
70.0,108.2976
70.0,108.3007
70.0,108.2992
70.0,108.3054
70.0,108.3085
70.0,108.3085
70.0,108.3194
70.0,108.3147
70.0,108.3163
70.0,108.3256
70.0,108.3179
70.0,108.3241
70.0,108.3194
70.0,108.3256
70.0,108.3288
70.0,108.3272
70.0,108.3365
70.0,108.3319
70.0,108.3365
70.0,108.3381
70.0,108.3365
70.0,108.3443
70.0,108.3397
70.0,108.3412
70.0,108.3459
70.0,108.3443
70.0,108.349
70.0,108.3552
70.0,108.3521
70.0,108.3521
70.0,108.3505
70.0,108.3552
70.0,108.349
70.0,108.3505
70.0,108.3614
70.0,108.3537
70.0,108.3599
70.0,108.3677
70.0,108.3661
70.0,108.3677
70.0,108.3661
70.0,108.3677
70.0,108.3739
70.0,108.3677
70.0,108.3708
70.0,108.3661
70.0,108.3692
70.0,108.3739
70.0,108.3708
70.0,108.3832
70.0,108.3708
70.0,108.3786
70.0,108.3832
70.0,108.377
70.0,108.3864
70.0,108.3786
70.0,108.391
70.0,108.377
70.0,108.3801
70.0,108.3926
70.0,108.3864
70.0,108.391
70.0,108.3895
70.0,108.3848
70.0,108.3941
70.0,108.3848
70.0,108.3895
70.0,108.391
70.0,108.3864
70.0,108.3973
70.0,108.3957
70.0,108.3988
70.0,108.4035
70.0,108.3973
70.0,108.4004
70.0,108.3895
70.0,108.3973
70.0,108.3988
70.0,108.3926
70.0,108.4066
70.0,108.3973
70.0,108.4082
70.0,108.4097
70.0,108.4019
70.0,108.4066
70.0,108.3957
70.0,108.4019
70.0,108.4113
70.0,108.4004
70.0,108.4144
70.0,108.4066
70.0,108.4113
70.0,108.4206
70.0,108.4082
70.0,108.4113
70.0,108.4066
70.0,108.4097
70.0,108.4175
70.0,108.4113
70.0,108.4284
70.0,108.4019
70.0,108.4019
70.0,108.4268
70.0,108.4128
70.0,108.4253
70.0,108.4128
70.0,108.4082
70.0,108.4299
70.0,108.4144
70.0,108.4315
70.0,108.419
70.0,108.4315
70.0,108.4237
70.0,108.4268
70.0,108.4315
70.0,108.4299
70.0,108.419
70.0,108.4299
70.0,108.4144
70.0,108.4222
70.0,108.4253
70.0,108.4144
70.0,108.4315
70.0,108.4206
70.0,108.4284
70.0,108.4346
70.0,108.4268
70.0,108.4299
70.0,108.4175
70.0,108.4206
70.0,108.4222
70.0,108.419
70.0,108.4377
70.0,108.4222
70.0,108.4284
70.0,108.4393
70.0,108.4268
70.0,108.4362
70.0,108.4222
70.0,108.4237
70.0,108.4268
70.0,108.4253
70.0,108.4424
70.0,108.4315
70.0,108.4408
70.0,108.4424
70.0,108.4299
70.0,108.444
70.0,108.4284
70.0,108.4315
70.0,108.4315
70.0,108.4299
70.0,108.4424
70.0,108.4517
70.0,108.4486
70.0,108.4393
70.0,108.4331
70.0,108.4455
70.0,108.4486
70.0,108.4346
70.0,108.4424
70.0,108.4284
70.0,108.4362
70.0,108.4377
70.0,108.4284
70.0,108.4517
70.0,108.4346
70.0,108.444
70.0,108.4549
70.0,108.4377
70.0,108.4502
70.0,108.4315
70.0,108.4362
70.0,108.4331
70.0,108.4346
70.0,108.4517
70.0,108.4362
70.0,108.4471
70.0,108.4533
70.0,108.4393
70.0,108.472
70.0,108.4284
70.0,108.4315
70.0,108.4626
70.0,108.4424
70.0,108.4393
70.0,108.4408
70.0,108.4315
70.0,108.4393
70.0,108.4424
70.0,108.4564
70.0,108.4533
70.0,108.4408
70.0,108.4517
70.0,108.4377
70.0,108.4424
70.0,108.4486
70.0,108.4362
70.0,108.4424
70.0,108.4408
70.0,108.4393
70.0,108.4564
70.0,108.4393
70.0,108.4455
70.0,108.4611
70.0,108.4486
70.0,108.4611
70.0,108.4455
70.0,108.4471
70.0,108.444
70.0,108.444
70.0,108.4486
70.0,108.4471
70.0,108.4455
70.0,108.4595
70.0,108.4517
70.0,108.4626
70.0,108.4595
70.0,108.4517
70.0,108.4642
70.0,108.4486
70.0,108.4502
70.0,108.4502
70.0,108.4471
70.0,108.4595
70.0,108.4502
70.0,108.4611
70.0,108.4595
70.0,108.4502
70.0,108.4595
70.0,108.4471
70.0,108.4517
70.0,108.4549
70.0,108.4502
70.0,108.4611
70.0,108.4533
70.0,108.4611
70.0,108.4611
70.0,108.4549
70.0,108.4595
70.0,108.4626
70.0,108.4564
70.0,108.4611
70.0,108.4486
70.0,108.458
70.0,108.4549
70.0,108.4486
70.0,108.4611
70.0,108.4549
70.0,108.458
70.0,108.4611
70.0,108.4549
70.0,108.4626
70.0,108.4517
70.0,108.4549
70.0,108.4549
70.0,108.4533
70.0,108.4642
70.0,108.458
70.0,108.4517
70.0,108.4595
70.0,108.4549
70.0,108.4642
70.0,108.4611
70.0,108.4595
70.0,108.4595
70.0,108.4549
70.0,108.458
70.0,108.458
70.0,108.4533
70.0,108.458
70.0,108.4549
70.0,108.458
70.0,108.4611
70.0,108.4595
70.0,108.458
70.0,108.458
70.0,108.458
70.0,108.458
70.0,108.4533
70.0,108.4626
70.0,108.4549
70.0,108.4595
70.0,108.4611
70.0,108.458
70.0,108.4595
70.0,108.4549
70.0,108.4564
70.0,108.4549
70.0,108.4549
70.0,108.4611
70.0,108.4549
70.0,108.4595
70.0,108.4611
70.0,108.4533
70.0,108.4626
70.0,108.458
70.0,108.4533
70.0,108.4502
70.0,108.458
70.0,108.4517
70.0,108.4595
70.0,108.4642
70.0,108.4611
70.0,108.458
70.0,108.4611
70.0,108.458
70.0,108.4595
70.0,108.458
70.0,108.4564
70.0,108.4533
70.0,108.458
70.0,108.4626
70.0,108.458
70.0,108.4611
70.0,108.458
70.0,108.4564
70.0,108.4626
70.0,108.4611
70.0,108.458
70.0,108.4611
70.0,108.4595
70.0,108.4626
70.0,108.472
70.0,108.4658
70.0,108.4549
70.0,108.4626
70.0,108.458
70.0,108.4658
70.0,108.4626
70.0,108.4689
70.0,108.4533
70.0,108.458
70.0,108.4642
70.0,108.4611
70.0,108.4658
70.0,108.4549
70.0,108.4549
70.0,108.4704
70.0,108.4642
70.0,108.4611
70.0,108.458
70.0,108.4626
70.0,108.4595
70.0,108.458
70.0,108.4689
70.0,108.4611
70.0,108.4611
70.0,108.4642
70.0,108.4611
70.0,108.4658
70.0,108.4658
70.0,108.4611
70.0,108.4626
70.0,108.4611
70.0,108.4611
70.0,108.458
70.0,108.4611
70.0,108.4595
70.0,108.4673
70.0,108.4626
70.0,108.4626
70.0,108.4658
70.0,108.4626
70.0,108.4595
70.0,108.4704
70.0,108.4642
70.0,108.4595
70.0,108.4626
70.0,108.4626
70.0,108.4611
70.0,108.4689
70.0,108.4704
70.0,108.4626
70.0,108.4611
70.0,108.472
70.0,108.4658
70.0,108.4642
70.0,108.4658
70.0,108.4642
70.0,108.4689
70.0,108.4704
70.0,108.4704
70.0,108.4642
70.0,108.4626
70.0,108.472
70.0,108.4689
70.0,108.4658
70.0,108.472
70.0,108.4642
70.0,108.4626
70.0,108.4704
70.0,108.4626
70.0,108.4642
70.0,108.4549
70.0,108.4735
70.0,108.4689
70.0,108.4673
70.0,108.4689
75.0,108.4689
75.0,105.9375
75.0,105.2806
75.0,105.8535
75.0,106.5587
75.0,107.3495
75.0,107.8648
75.0,108.3194
75.0,108.5623
75.0,108.7024
75.0,108.7709
75.0,108.7569
75.0,108.7397
75.0,108.7226
75.0,108.7039
75.0,108.7086
75.0,108.6915
75.0,108.6962
75.0,108.7117
75.0,108.7071
75.0,108.7288
75.0,108.7351
75.0,108.7413
75.0,108.7506
75.0,108.7397
75.0,108.7553
75.0,108.7522
75.0,108.7584
75.0,108.7849
75.0,108.7709
75.0,108.788
75.0,108.7973
75.0,108.802
75.0,108.8036
75.0,108.7927
75.0,108.8129
75.0,108.802
75.0,108.8051
75.0,108.8254
75.0,108.8129
75.0,108.8378
75.0,108.8378
75.0,108.8223
75.0,108.8487
75.0,108.8456
75.0,108.8518
75.0,108.8581
75.0,108.8425
75.0,108.8627
75.0,108.8503
75.0,108.8549
75.0,108.8643
75.0,108.8581
75.0,108.8752
75.0,108.8721
75.0,108.8752
75.0,108.8861
75.0,108.8752
75.0,108.8845
75.0,108.8783
75.0,108.883
75.0,108.8954
75.0,108.8876
75.0,108.897
75.0,108.9016
75.0,108.9048
75.0,108.9063
75.0,108.9001
75.0,108.9048
75.0,108.9001
75.0,108.9063
75.0,108.9188
75.0,108.9032
75.0,108.9094
75.0,108.9141
75.0,108.9203
75.0,108.8939
75.0,108.9125
75.0,108.9359
75.0,108.9157
75.0,108.9188
75.0,108.9234
75.0,108.9219
75.0,108.9468
75.0,108.9312
75.0,108.9343
75.0,108.9499
75.0,108.939
75.0,108.9421
75.0,108.9515
75.0,108.9328
75.0,108.9546
75.0,108.9359
75.0,108.9421
75.0,108.9468
75.0,108.9437
75.0,108.9624
75.0,108.9499
75.0,108.9546
75.0,108.9592
75.0,108.9499
75.0,108.9577
75.0,108.953
75.0,108.9561
75.0,108.9624
75.0,108.953
75.0,108.967
75.0,108.967
75.0,108.9701
75.0,108.967
75.0,108.9624
75.0,108.967
75.0,108.9701
75.0,108.9577
75.0,108.9639
75.0,108.9561
75.0,108.9561
75.0,108.9701
75.0,108.9592
75.0,108.9733
75.0,108.9701
75.0,108.9748
75.0,108.9779
75.0,108.9639
75.0,108.9795
75.0,108.9655
75.0,108.9701
75.0,108.9826
75.0,108.9701
75.0,108.9748
75.0,108.9826
75.0,108.9842
75.0,108.9795
75.0,108.9764
75.0,108.9873
75.0,108.9904
75.0,108.9826
75.0,108.9966
75.0,108.9842
75.0,108.9904
75.0,108.9951
75.0,108.9873
75.0,108.9951
75.0,108.9966
75.0,108.9997
75.0,108.9842
75.0,108.9966
75.0,108.9951
75.0,108.9935
75.0,108.9982
75.0,108.9997
75.0,108.9997
75.0,108.9966
75.0,109.0044
75.0,109.0044
75.0,109.0013
75.0,108.9982
75.0,109.0013
75.0,108.9982
75.0,109.0013
75.0,109.0044
75.0,109.006
75.0,109.0044
75.0,109.0013
75.0,109.0122
75.0,109.0091
75.0,109.0075
75.0,109.0075
75.0,108.9982
75.0,108.9997
75.0,109.0091
75.0,108.9997
75.0,109.0122
75.0,108.9997
75.0,109.0137
75.0,109.0044
75.0,109.0106
75.0,109.02
75.0,109.0091
75.0,109.0168
75.0,109.0184
75.0,109.0106
75.0,109.0246
75.0,109.02
75.0,109.0231
75.0,109.0215
75.0,109.0231
75.0,109.0246
75.0,109.0168
75.0,109.0231
75.0,109.0262
75.0,109.0168
75.0,109.0355
75.0,109.0293
75.0,109.0262
75.0,109.034
75.0,109.0309
75.0,108.9904
75.0,109.0449
75.0,109.0153
75.0,109.0262
75.0,109.0449
75.0,109.0636
75.0,108.9935
75.0,108.9982
75.0,109.0573
75.0,109.048
75.0,108.9997
75.0,109.0246
75.0,109.0402
75.0,109.0433
75.0,109.0246
75.0,109.0153
75.0,109.0309
75.0,109.0277
75.0,109.0324
75.0,109.0386
75.0,109.0137
75.0,109.0309
75.0,109.0386
75.0,109.0433
75.0,109.034
75.0,109.0168
75.0,109.0402
75.0,109.0355
75.0,109.0262
75.0,109.034
75.0,109.0355
75.0,109.0355
75.0,109.0386
75.0,109.0386
75.0,109.0402
75.0,109.0215
75.0,109.0402
75.0,109.0371
75.0,109.0277
75.0,109.048
75.0,109.0449
75.0,109.034
75.0,109.0449
75.0,109.0449
75.0,109.0495
75.0,109.0464
75.0,109.0433
75.0,109.0495
75.0,109.0402
75.0,109.0418
75.0,109.0402
75.0,109.034
75.0,109.0464
75.0,109.0418
75.0,109.048
75.0,109.0433
75.0,109.0433
75.0,109.0527
75.0,109.048
75.0,109.0418
75.0,109.0371
75.0,109.0464
75.0,109.0542
75.0,109.0402
75.0,109.0511
75.0,109.0511
75.0,109.0542
75.0,109.0542
75.0,109.0402
75.0,109.0511
75.0,109.0418
75.0,109.0402
75.0,109.0558
75.0,109.0418
75.0,109.0604
75.0,109.0573
75.0,109.0573
75.0,109.0589
75.0,109.0418
75.0,109.0589
75.0,109.0495
75.0,109.0402
75.0,109.0573
75.0,109.048
75.0,109.0636
75.0,109.0604
75.0,109.0636
75.0,109.0636
75.0,109.0464
75.0,109.0573
75.0,109.048
75.0,109.0433
75.0,109.0542
75.0,109.048
75.0,109.0604
75.0,109.0573
75.0,109.0558
75.0,109.0636
75.0,109.048
75.0,109.0589
75.0,109.0464
75.0,109.0495
75.0,109.0589
75.0,109.0495
75.0,109.048
75.0,109.062
75.0,109.0527
75.0,109.0636
75.0,109.062
75.0,109.0589
75.0,109.0651
75.0,109.0495
75.0,109.0604
75.0,109.048
75.0,109.0495
75.0,109.0636
75.0,109.0511
75.0,109.0651
75.0,109.0636
75.0,109.0636
75.0,109.0667
75.0,109.0495
75.0,109.0667
75.0,109.0527
75.0,109.0495
75.0,109.062
75.0,109.0511
75.0,109.062
75.0,109.0604
75.0,109.062
75.0,109.0636
75.0,109.048
75.0,109.0651
75.0,109.0558
75.0,109.0542
75.0,109.0667
75.0,109.0542
75.0,109.0682
75.0,109.0682
75.0,109.048
75.0,109.0729
75.0,109.0713
75.0,109.0713
75.0,109.0729
75.0,109.0495
75.0,109.0682
75.0,109.0682
75.0,109.0511
75.0,109.0698
75.0,109.062
75.0,109.0745
75.0,109.0682
75.0,109.0729
75.0,109.0651
75.0,109.0402
75.0,109.0745
75.0,109.0667
75.0,109.0418
75.0,109.048
75.0,109.0869
75.0,109.0822
75.0,109.0604
75.0,109.0542
75.0,109.0776
75.0,109.0682
75.0,109.0729
75.0,109.0542
75.0,109.0573
75.0,109.0745
75.0,109.0682
75.0,109.0807
75.0,109.0745
75.0,109.0745
75.0,109.0838
75.0,109.0636
75.0,109.0651
75.0,109.0542
75.0,109.0651
75.0,109.0791
75.0,109.0542
75.0,109.0776
75.0,109.0807
75.0,109.0776
75.0,109.0776
75.0,109.0542
75.0,109.0776
75.0,109.0589
75.0,109.0573
75.0,109.0776
75.0,109.0589
75.0,109.0776
75.0,109.0807
75.0,109.076
75.0,109.0791
75.0,109.0558
75.0,109.0776
75.0,109.0604
75.0,109.0604
75.0,109.0807
75.0,109.0604
75.0,109.0822
75.0,109.0838
75.0,109.0822
75.0,109.0853
75.0,109.0651
75.0,109.0807
75.0,109.0636
75.0,109.0667
75.0,109.0807
75.0,109.0589
75.0,109.0822
75.0,109.0822
75.0,109.0807
75.0,109.0838
75.0,109.0589
75.0,109.0822
75.0,109.0822
75.0,109.0604
75.0,109.0822
75.0,109.0604
75.0,109.0604
75.0,109.0853
75.0,109.062
75.0,109.0853
75.0,109.0869
75.0,109.0885
75.0,109.0651
75.0,109.0667
75.0,109.0838
75.0,109.0651
75.0,109.0636
75.0,109.0885
75.0,109.062
75.0,109.0885
75.0,109.0869
75.0,109.0885
75.0,109.09
75.0,109.0698
75.0,109.0853
75.0,109.0682
75.0,109.076
75.0,109.0916
75.0,109.0667
75.0,109.0916
75.0,109.09
75.0,109.0916
75.0,109.0713
75.0,109.0729
75.0,109.09
75.0,109.0745
75.0,109.0713
75.0,109.0916
75.0,109.0698
80.0,109.0885
80.0,106.143
80.0,105.4238
80.0,106.0777
80.0,107.116
80.0,107.8913
80.0,108.5685
80.0,108.9406
80.0,109.1321
80.0,109.1881
80.0,109.1974
80.0,109.1756
80.0,109.1554
80.0,109.1383
80.0,109.1336
80.0,109.1414
80.0,109.1445
80.0,109.1554
80.0,109.1632
80.0,109.1725
80.0,109.1772
80.0,109.1912
80.0,109.2037
80.0,109.2068
80.0,109.2192
80.0,109.2161
80.0,109.2255
80.0,109.2317
80.0,109.2379
80.0,109.2504
80.0,109.2504
80.0,109.2659
80.0,109.2675
80.0,109.2706
80.0,109.2846
80.0,109.2784
80.0,109.2924
80.0,109.2893
80.0,109.294
80.0,109.308
80.0,109.3111
80.0,109.3142
80.0,109.3095
80.0,109.3173
80.0,109.3173
80.0,109.322
80.0,109.3298
80.0,109.3282
80.0,109.3407
80.0,109.3453
80.0,109.3422
80.0,109.3469
80.0,109.3391
80.0,109.3484
80.0,109.35
80.0,109.3531
80.0,109.3671
80.0,109.3609
80.0,109.3625
80.0,109.3718
80.0,109.3734
80.0,109.3811
80.0,109.3718
80.0,109.3811
80.0,109.3796
80.0,109.3796
80.0,109.3842
80.0,109.3858
80.0,109.3998
80.0,109.3889
80.0,109.3889
80.0,109.4029
80.0,109.3936
80.0,109.3967
80.0,109.3951
80.0,109.3951
80.0,109.4045
80.0,109.4014
80.0,109.4092
80.0,109.4107
80.0,109.4123
80.0,109.4154
80.0,109.4123
80.0,109.4185
80.0,109.4169
80.0,109.4185
80.0,109.4263
80.0,109.4185
80.0,109.4263
80.0,109.4278
80.0,109.4263
80.0,109.4341
80.0,109.4263
80.0,109.4325
80.0,109.4278
80.0,109.4278
80.0,109.4387
80.0,109.431
80.0,109.4325
80.0,109.4403
80.0,109.4387
80.0,109.4481
80.0,109.4403
80.0,109.4418
80.0,109.4403
80.0,109.4387
80.0,109.445
80.0,109.4403
80.0,109.4418
80.0,109.4481
80.0,109.4434
80.0,109.4543
80.0,109.4512
80.0,109.4574
80.0,109.4527
80.0,109.4481
80.0,109.4559
80.0,109.4543
80.0,109.4605
80.0,109.459
80.0,109.4621
80.0,109.4745
80.0,109.4636
80.0,109.4683
80.0,109.4621
80.0,109.4636
80.0,109.4683
80.0,109.4605
80.0,109.4745
80.0,109.4745
80.0,109.473
80.0,109.4792
80.0,109.4699
80.0,109.4808
80.0,109.4745
80.0,109.4745
80.0,109.4792
80.0,109.4714
80.0,109.4745
80.0,109.4823
80.0,109.4761
80.0,109.4901
80.0,109.4839
80.0,109.4839
80.0,109.4901
80.0,109.4808
80.0,109.4901
80.0,109.4808
80.0,109.4823
80.0,109.4932
80.0,109.4823
80.0,109.4823
80.0,109.4917
80.0,109.4963
80.0,109.5026
80.0,109.4917
80.0,109.4963
80.0,109.4932
80.0,109.4948
80.0,109.5026
80.0,109.4948
80.0,109.4979
80.0,109.5103
80.0,109.4979
80.0,109.5135
80.0,109.5103
80.0,109.515
80.0,109.5119
80.0,109.4995
80.0,109.5072
80.0,109.5041
80.0,109.501
80.0,109.5119
80.0,109.5057
80.0,109.515
80.0,109.5103
80.0,109.5103
80.0,109.5181
80.0,109.5057
80.0,109.5072
80.0,109.5072
80.0,109.5103
80.0,109.5181
80.0,109.5103
80.0,109.5197
80.0,109.5119
80.0,109.515
80.0,109.5228
80.0,109.5135
80.0,109.5259
80.0,109.515
80.0,109.5119
80.0,109.5166
80.0,109.515
80.0,109.529
80.0,109.5181
80.0,109.515
80.0,109.5306
80.0,109.5212
80.0,109.5275
80.0,109.5212
80.0,109.5259
80.0,109.5259
80.0,109.5212
80.0,109.5306
80.0,109.5228
80.0,109.5259
80.0,109.5337
80.0,109.529
80.0,109.5306
80.0,109.5259
80.0,109.5321
80.0,109.5337
80.0,109.5275
80.0,109.5337
80.0,109.5353
80.0,109.5353
80.0,109.5384
80.0,109.5337
80.0,109.5384
80.0,109.5321
80.0,109.5337
80.0,109.5384
80.0,109.5337
80.0,109.5446
80.0,109.5337
80.0,109.5384
80.0,109.5462
80.0,109.5368
80.0,109.5446
80.0,109.5368
80.0,109.5415
80.0,109.5462
80.0,109.5399
80.0,109.543
80.0,109.5524
80.0,109.5415
80.0,109.5493
80.0,109.5555
80.0,109.5555
80.0,109.5524
80.0,109.5477
80.0,109.543
80.0,109.5446
80.0,109.5384
80.0,109.543
80.0,109.543
80.0,109.5508
80.0,109.5462
80.0,109.543
80.0,109.5508
80.0,109.5493
80.0,109.5446
80.0,109.5399
80.0,109.5477
80.0,109.5524
80.0,109.543
80.0,109.5462
80.0,109.5508
80.0,109.5508
80.0,109.5508
80.0,109.5508
80.0,109.5508
80.0,109.5524
80.0,109.5508
80.0,109.5524
80.0,109.5524
80.0,109.5508
80.0,109.5539
80.0,109.5539
80.0,109.5586
80.0,109.5586
80.0,109.5524
80.0,109.5539
80.0,109.5555
80.0,109.5602
80.0,109.5555
80.0,109.5539
80.0,109.5586
80.0,109.5508
80.0,109.5508
80.0,109.5524
80.0,109.5555
80.0,109.5571
80.0,109.5539
80.0,109.5539
80.0,109.5586
80.0,109.5571
80.0,109.5571
80.0,109.5555
80.0,109.5508
80.0,109.5555
80.0,109.5524
80.0,109.5539
80.0,109.5617
80.0,109.5524
80.0,109.5602
80.0,109.5617
80.0,109.5602
80.0,109.5633
80.0,109.5571
80.0,109.5617
80.0,109.5586
80.0,109.5633
80.0,109.5679
80.0,109.5664
80.0,109.5617
80.0,109.5679
80.0,109.5617
80.0,109.5633
80.0,109.5602
80.0,109.5664
80.0,109.5664
80.0,109.5711
80.0,109.5633
80.0,109.5524
80.0,109.5726
80.0,109.5726
80.0,109.5586
80.0,109.5586
80.0,109.5602
80.0,109.5664
80.0,109.5617
80.0,109.5679
80.0,109.5633
80.0,109.5586
80.0,109.5742
80.0,109.5726
80.0,109.5602
80.0,109.5726
80.0,109.5664
80.0,109.5648
80.0,109.5617
80.0,109.5695
80.0,109.5711
80.0,109.5617
80.0,109.5679
80.0,109.5742
80.0,109.5711
80.0,109.5711
80.0,109.5648
80.0,109.5742
80.0,109.5726
80.0,109.5679
80.0,109.5695
80.0,109.5711
80.0,109.5757
80.0,109.5773
80.0,109.5711
80.0,109.5757
80.0,109.5711
80.0,109.5742
80.0,109.5757
80.0,109.5711
80.0,109.5757
80.0,109.5882
80.0,109.5851
80.0,109.5773
80.0,109.5679
80.0,109.5851
80.0,109.5804
80.0,109.5664
80.0,109.5633
80.0,109.582
80.0,109.5835
80.0,109.5711
80.0,109.5773
80.0,109.5882
80.0,109.5851
80.0,109.582
80.0,109.5742
80.0,109.5851
80.0,109.5851
80.0,109.5757
80.0,109.5882
80.0,109.5897
80.0,109.5757
80.0,109.5835
80.0,109.5866
80.0,109.5882
80.0,109.5835
80.0,109.5788
80.0,109.5866
80.0,109.5851
80.0,109.5835
80.0,109.5851
80.0,109.5835
80.0,109.5897
80.0,109.5835
80.0,109.5897
80.0,109.5851
80.0,109.582
80.0,109.5897
80.0,109.5866
80.0,109.5835
80.0,109.5835
80.0,109.5882
80.0,109.596
80.0,109.5851
80.0,109.5897
80.0,109.5944
80.0,109.5866
80.0,109.5929
80.0,109.5835
80.0,109.5913
80.0,109.5897
80.0,109.5851
80.0,109.5913
80.0,109.5913
80.0,109.5866
80.0,109.5929
80.0,109.5975
80.0,109.6006
80.0,109.596
80.0,109.5929
80.0,109.5975
80.0,109.5913
80.0,109.5944
80.0,109.5913
80.0,109.5913
80.0,109.5975
80.0,109.5913
80.0,109.5991
80.0,109.5991
80.0,109.5991
80.0,109.5991
80.0,109.596
80.0,109.5897
80.0,109.6022
80.0,109.5991
80.0,109.6022
80.0,109.5944
80.0,109.5991
80.0,109.6053
80.0,109.6053
80.0,109.6053
80.0,109.6022
80.0,109.6053
80.0,109.6022
80.0,109.5991
80.0,109.6053
80.0,109.6022
80.0,109.6022
80.0,109.6084
80.0,109.6069
80.0,109.6084
80.0,109.6069
80.0,109.6053
80.0,109.6084
80.0,109.6053
85.0,109.6069
85.0,106.3439
85.0,105.5452
85.0,106.5618
85.0,107.6609
85.0,108.6744
85.0,109.2192
85.0,109.5166
85.0,109.6022
85.0,109.6162
85.0,109.5913
85.0,109.582
85.0,109.5493
85.0,109.5648
85.0,109.5711
85.0,109.5757
85.0,109.6053
85.0,109.6053
85.0,109.6287
85.0,109.6271
85.0,109.6427
85.0,109.6629
85.0,109.6567
85.0,109.6738
85.0,109.6785
85.0,109.6863
85.0,109.6894
85.0,109.7034
85.0,109.7112
85.0,109.7174
85.0,109.7267
85.0,109.733
85.0,109.7408
85.0,109.7501
85.0,109.747
85.0,109.7532
85.0,109.7719
85.0,109.7719
85.0,109.7672
85.0,109.7734
85.0,109.7797
85.0,109.7812
85.0,109.7999
85.0,109.8015
85.0,109.7812
85.0,109.7937
85.0,109.8108
85.0,109.8092
85.0,109.8046
85.0,109.8155
85.0,109.8233
85.0,109.8077
85.0,109.8233
85.0,109.8326
85.0,109.8357
85.0,109.8357
85.0,109.831
85.0,109.8419
85.0,109.8373
85.0,109.8497
85.0,109.8513
85.0,109.8419
85.0,109.8528
85.0,109.8606
85.0,109.8591
85.0,109.8637
85.0,109.8606
85.0,109.8684
85.0,109.8684
85.0,109.8731
85.0,109.8731
85.0,109.8746
85.0,109.8809
85.0,109.8855
85.0,109.8824
85.0,109.8855
85.0,109.8731
85.0,109.8886
85.0,109.8793
85.0,109.8902
85.0,109.9011
85.0,109.8715
85.0,109.898
85.0,109.9042
85.0,109.9027
85.0,109.9058
85.0,109.898
85.0,109.9058
85.0,109.8871
85.0,109.9136
85.0,109.9136
85.0,109.8964
85.0,109.912
85.0,109.9167
85.0,109.9151
85.0,109.9198
85.0,109.9182
85.0,109.9182
85.0,109.9027
85.0,109.9245
85.0,109.9276
85.0,109.912
85.0,109.9245
85.0,109.9338
85.0,109.9291
85.0,109.9276
85.0,109.9104
85.0,109.9338
85.0,109.9338
85.0,109.9245
85.0,109.94
85.0,109.9276
85.0,109.9416
85.0,109.9447
85.0,109.9462
85.0,109.9478
85.0,109.9525
85.0,109.9431
85.0,109.9431
85.0,109.94
85.0,109.9494
85.0,109.9634
85.0,109.9571
85.0,109.954
85.0,109.9556
85.0,109.9571
85.0,109.9307
85.0,109.9587
85.0,109.9447
85.0,109.9525
85.0,109.9587
85.0,109.9618
85.0,109.9649
85.0,109.968
85.0,109.968
85.0,109.9712
85.0,109.9696
85.0,109.9696
85.0,109.9571
85.0,109.9696
85.0,109.9665
85.0,109.9836
85.0,109.9774
85.0,109.9727
85.0,109.9758
85.0,109.9805
85.0,109.9789
85.0,109.9805
85.0,109.9789
85.0,109.9649
85.0,109.9867
85.0,109.9914
85.0,109.9603
85.0,109.9774
85.0,109.9898
85.0,109.9929
85.0,109.9914
85.0,109.9961
85.0,109.9914
85.0,109.9758
85.0,109.9992
85.0,110.0007
85.0,109.9852
85.0,109.9898
85.0,109.9898
85.0,109.9976
85.0,109.9976
85.0,109.9992
85.0,110.0038
85.0,109.9929
85.0,110.0038
85.0,109.9867
85.0,110.0038
85.0,110.0038
85.0,109.9836
85.0,110.0085
85.0,110.0023
85.0,110.0054
85.0,110.0116
85.0,110.0085
85.0,110.0132
85.0,110.007
85.0,110.007
85.0,110.0085
85.0,109.9789
85.0,110.007
85.0,110.007
85.0,110.0116
85.0,110.0101
85.0,110.0038
85.0,110.0101
85.0,109.9914
85.0,110.0085
85.0,110.007
85.0,109.9789
85.0,110.0132
85.0,110.0194
85.0,109.9789
85.0,110.0147
85.0,110.0007
85.0,110.021
85.0,110.0101
85.0,110.0101
85.0,110.0225
85.0,110.0054
85.0,110.0116
85.0,110.0194
85.0,110.0116
85.0,110.0241
85.0,110.0272
85.0,110.0272
85.0,110.0288
85.0,110.0303
85.0,110.0288
85.0,110.0303
85.0,110.0194
85.0,110.0303
85.0,110.0038
85.0,110.0288
85.0,110.0319
85.0,110.0163
85.0,110.0288
85.0,110.0334
85.0,110.0334
85.0,110.0365
85.0,110.0272
85.0,110.0365
85.0,110.0147
85.0,110.0365
85.0,110.0303
85.0,110.0194
85.0,110.0334
85.0,110.0365
85.0,110.035
85.0,110.035
85.0,110.0116
85.0,110.0365
85.0,110.0132
85.0,110.0365
85.0,110.0381
85.0,110.0319
85.0,110.0443
85.0,110.0381
85.0,110.0428
85.0,110.0443
85.0,110.0365
85.0,110.0412
85.0,110.0194
85.0,110.0412
85.0,110.0443
85.0,110.0443
85.0,110.0505
85.0,110.0241
85.0,110.0365
85.0,110.0474
85.0,110.0428
85.0,110.0443
85.0,110.0334
85.0,110.0397
85.0,110.0505
85.0,110.0397
85.0,110.0661
85.0,110.0583
85.0,110.0272
85.0,110.049
85.0,110.0443
85.0,110.0443
85.0,110.0537
85.0,110.0505
85.0,110.0474
85.0,110.0163
85.0,110.0537
85.0,110.0599
85.0,110.0132
85.0,110.049
85.0,110.049
85.0,110.0537
85.0,110.0599
85.0,110.0568
85.0,110.0583
85.0,110.0303
85.0,110.0568
85.0,110.0661
85.0,110.0256
85.0,110.0646
85.0,110.0614
85.0,110.0661
85.0,110.0646
85.0,110.0599
85.0,110.0677
85.0,110.0474
85.0,110.0661
85.0,110.0677
85.0,110.0412
85.0,110.0661
85.0,110.0521
85.0,110.0646
85.0,110.0661
85.0,110.0646
85.0,110.0661
85.0,110.049
85.0,110.0692
85.0,110.0614
85.0,110.0428
85.0,110.0692
85.0,110.063
85.0,110.0708
85.0,110.0428
85.0,110.0677
85.0,110.0723
85.0,110.0412
85.0,110.0723
85.0,110.0646
85.0,110.0365
85.0,110.0692
85.0,110.063
85.0,110.0739
85.0,110.0708
85.0,110.0646
85.0,110.0708
85.0,110.0381
85.0,110.0677
85.0,110.0708
85.0,110.0443
85.0,110.0723
85.0,110.0723
85.0,110.0505
85.0,110.077
85.0,110.1362
85.0,110.1035
85.0,110.0459
85.0,110.0599
85.0,110.049
85.0,110.0521
85.0,110.1113
85.0,110.1206
85.0,110.0521
85.0,110.0334
85.0,110.1082
85.0,110.1004
85.0,110.0786
85.0,110.0723
85.0,110.0755
85.0,110.0412
85.0,110.0973
85.0,110.0973
85.0,110.0365
85.0,110.0677
85.0,110.0957
85.0,110.091
85.0,110.0848
85.0,110.0817
85.0,110.0801
85.0,110.049
85.0,110.0957
85.0,110.0864
85.0,110.0505
85.0,110.0801
85.0,110.0864
85.0,110.0895
85.0,110.091
85.0,110.091
85.0,110.0786
85.0,110.0505
85.0,110.1268
85.0,110.1315
85.0,110.0505
85.0,110.0817
85.0,110.1035
85.0,110.1004
85.0,110.091
85.0,110.0817
85.0,110.0895
85.0,110.0614
85.0,110.0988
85.0,110.1066
85.0,110.0614
85.0,110.0879
85.0,110.0941
85.0,110.0864
85.0,110.091
85.0,110.0848
85.0,110.091
85.0,110.1019
85.0,110.0957
85.0,110.0957
85.0,110.0708
85.0,110.091
85.0,110.0941
85.0,110.1019
85.0,110.0895
85.0,110.0864
85.0,110.0895
85.0,110.0723
85.0,110.0973
85.0,110.0988
85.0,110.0864
85.0,110.1004
85.0,110.0957
85.0,110.0957
85.0,110.1082
85.0,110.105
85.0,110.091
85.0,110.0708
85.0,110.1175
85.0,110.1159
85.0,110.0786
85.0,110.0973
85.0,110.105
85.0,110.0864
85.0,110.0941
85.0,110.0864
85.0,110.0848
85.0,110.1004
85.0,110.0957
85.0,110.0801
85.0,110.0708
85.0,110.1035
85.0,110.0973
85.0,110.0926
85.0,110.1019
85.0,110.1004
85.0,110.0848
85.0,110.0723
85.0,110.0957
85.0,110.1035
85.0,110.0895
85.0,110.1035
85.0,110.1004
85.0,110.1004
85.0,110.0988
85.0,110.0957
85.0,110.1082
85.0,110.1004
85.0,110.0957
85.0,110.1128
85.0,110.1082
85.0,110.1097
85.0,110.1159
85.0,110.1066
85.0,110.1035
85.0,110.1175
85.0,110.1097
85.0,110.1175
85.0,110.1082
85.0,110.1097
85.0,110.1082
85.0,110.1128
85.0,110.1206
85.0,110.091
90.0,110.105
90.0,106.5603
90.0,105.718
90.0,106.9899
90.0,108.2369
90.0,109.308
90.0,109.7594
90.0,109.9307
90.0,109.9727
90.0,109.9712
90.0,109.9416
90.0,109.9556
90.0,109.9478
90.0,109.9571
90.0,109.9665
90.0,109.9945
90.0,109.9961
90.0,110.021
90.0,110.0334
90.0,110.0459
90.0,110.0708
90.0,110.0677
90.0,110.091
90.0,110.1035
90.0,110.1035
90.0,110.1253
90.0,110.119
90.0,110.1315
90.0,110.1455
90.0,110.1424
90.0,110.1642
90.0,110.1595
90.0,110.1766
90.0,110.186
90.0,110.1891
90.0,110.2
90.0,110.2078
90.0,110.2
90.0,110.2265
90.0,110.2218
90.0,110.228
90.0,110.2342
90.0,110.2374
90.0,110.2529
90.0,110.2514
90.0,110.2623
90.0,110.2669
90.0,110.2576
90.0,110.2794
90.0,110.2732
90.0,110.2732
90.0,110.2794
90.0,110.281
90.0,110.2965
90.0,110.2965
90.0,110.3027
90.0,110.309
90.0,110.2996
90.0,110.3121
90.0,110.3059
90.0,110.3168
90.0,110.3214
90.0,110.3152
90.0,110.3323
90.0,110.3277
90.0,110.337
90.0,110.3479
90.0,110.3463
90.0,110.3448
90.0,110.3588
90.0,110.3526
90.0,110.3588
90.0,110.3603
90.0,110.3697
90.0,110.3728
90.0,110.3837
90.0,110.3775
90.0,110.3806
90.0,110.3837
90.0,110.3868
90.0,110.3977
90.0,110.3977
90.0,110.3899
90.0,110.4008
90.0,110.3993
90.0,110.3977
90.0,110.4133
90.0,110.4086
90.0,110.4117
90.0,110.4086
90.0,110.4008
90.0,110.4102
90.0,110.4148
90.0,110.4226
90.0,110.4211
90.0,110.4288
90.0,110.4226
90.0,110.4304
90.0,110.4273
90.0,110.4288
90.0,110.4366
90.0,110.4351
90.0,110.432
90.0,110.4413
90.0,110.3868
90.0,110.3946
90.0,110.4039
90.0,110.4008
90.0,110.4055
90.0,110.3962
90.0,110.4024
90.0,110.4086
90.0,110.3962
90.0,110.4039
90.0,110.4039
90.0,110.4133
90.0,110.4211
90.0,110.4195
90.0,110.4288
90.0,110.4242
90.0,110.4179
90.0,110.4226
90.0,110.4102
90.0,110.4195
90.0,110.4164
90.0,110.4117
90.0,110.4257
90.0,110.4211
90.0,110.4273
90.0,110.4288
90.0,110.4242
90.0,110.4304
90.0,110.4242
90.0,110.4288
90.0,110.4257
90.0,110.4288
90.0,110.4366
90.0,110.4304
90.0,110.4382
90.0,110.4335
90.0,110.4304
90.0,110.4413
90.0,110.4304
90.0,110.4397
90.0,110.4366
90.0,110.4304
90.0,110.4491
90.0,110.4273
90.0,110.4382
90.0,110.4397
90.0,110.4615
90.0,110.4755
90.0,110.4506
90.0,110.4413
90.0,110.4444
90.0,110.446
90.0,110.4631
90.0,110.4553
90.0,110.4491
90.0,110.46
90.0,110.4538
90.0,110.4647
90.0,110.4522
90.0,110.4662
90.0,110.4709
90.0,110.4553
90.0,110.4693
90.0,110.4647
90.0,110.4647
90.0,110.4787
90.0,110.4569
90.0,110.4662
90.0,110.46
90.0,110.46
90.0,110.4584
90.0,110.4662
90.0,110.4771
90.0,110.4615
90.0,110.4709
90.0,110.4709
90.0,110.4662
90.0,110.4787
90.0,110.4709
90.0,110.4709
90.0,110.474
90.0,110.4662
90.0,110.4958
90.0,110.5005
90.0,110.4864
90.0,110.4849
90.0,110.5051
90.0,110.4927
90.0,110.5238
90.0,110.5114
90.0,110.4942
90.0,110.4896
90.0,110.4958
90.0,110.4896
90.0,110.5036
90.0,110.5114
90.0,110.4911
90.0,110.4989
90.0,110.4911
90.0,110.4942
90.0,110.4896
90.0,110.4927
90.0,110.4958
90.0,110.5005
90.0,110.4958
90.0,110.5114
90.0,110.5051
90.0,110.5114
90.0,110.5145
90.0,110.5114
90.0,110.5114
90.0,110.5067
90.0,110.5114
90.0,110.5114
90.0,110.5114
90.0,110.5254
90.0,110.516
90.0,110.5207
90.0,110.5207
90.0,110.5191
90.0,110.5254
90.0,110.5207
90.0,110.5191
90.0,110.5207
90.0,110.5238
90.0,110.5332
90.0,110.5285
90.0,110.5316
90.0,110.5332
90.0,110.5269
90.0,110.5269
90.0,110.5223
90.0,110.5269
90.0,110.53
90.0,110.5254
90.0,110.5332
90.0,110.5238
90.0,110.53
90.0,110.5347
90.0,110.5316
90.0,110.5332
90.0,110.5316
90.0,110.5254
90.0,110.5332
90.0,110.5316
90.0,110.5347
90.0,110.5378
90.0,110.5316
90.0,110.5378
90.0,110.5378
90.0,110.5378
90.0,110.5378
90.0,110.5316
90.0,110.5332
90.0,110.5269
90.0,110.5378
90.0,110.5332
90.0,110.5347
90.0,110.5378
90.0,110.5191
90.0,110.5316
90.0,110.5238
90.0,110.5316
90.0,110.5332
90.0,110.53
90.0,110.5425
90.0,110.5363
90.0,110.5409
90.0,110.544
90.0,110.5394
90.0,110.5409
90.0,110.5347
90.0,110.5363
90.0,110.5378
90.0,110.5347
90.0,110.5425
90.0,110.5409
90.0,110.5456
90.0,110.5472
90.0,110.5425
90.0,110.5518
90.0,110.5409
90.0,110.5456
90.0,110.544
90.0,110.544
90.0,110.5472
90.0,110.544
90.0,110.5472
90.0,110.5472
90.0,110.5425
90.0,110.5487
90.0,110.5409
90.0,110.5487
90.0,110.5534
90.0,110.544
90.0,110.5534
90.0,110.5487
90.0,110.5534
90.0,110.5721
90.0,110.5721
90.0,110.5487
90.0,110.5503
90.0,111.2991
90.0,111.2119
90.0,110.9644
90.0,110.941
90.0,111.0469
90.0,110.9784
90.0,111.0469
90.0,111.0609
90.0,110.9566
90.0,110.9768
90.0,110.9831
90.0,110.9675
90.0,111.0344
90.0,111.0422
90.0,110.9768
90.0,110.9753
90.0,110.9908
90.0,110.9706
90.0,111.0204
90.0,111.0142
90.0,110.9955
90.0,111.0126
90.0,111.0002
90.0,111.0002
90.0,111.0142
90.0,111.0017
90.0,111.0064
90.0,111.0049
90.0,111.0017
90.0,111.0002
90.0,111.0126
90.0,111.0173
90.0,111.0142
90.0,111.0204
90.0,111.0126
90.0,111.0111
90.0,111.0173
90.0,111.0142
90.0,111.0251
90.0,111.0266
90.0,111.0095
90.0,111.0095
90.0,111.0095
90.0,111.0158
90.0,111.0251
90.0,111.0158
90.0,111.0189
90.0,111.0158
90.0,111.0126
90.0,111.0111
90.0,111.0142
90.0,111.0173
90.0,111.0142
90.0,111.0282
90.0,111.0204
90.0,111.022
90.0,111.0235
90.0,111.0235
90.0,111.0251
90.0,111.0251
90.0,111.0204
90.0,111.0266
90.0,111.022
90.0,111.0313
90.0,111.0375
90.0,111.0329
90.0,111.0298
90.0,111.0266
90.0,111.0282
90.0,111.022
90.0,111.0251
90.0,111.0282
90.0,111.0235
90.0,111.0298
90.0,111.0329
90.0,111.0375
90.0,111.0375
90.0,111.0344
90.0,111.0329
90.0,111.0313
90.0,111.0313
90.0,111.0375
90.0,111.0344
90.0,111.0375
90.0,111.0344
90.0,111.0344
90.0,111.0438
90.0,111.0329
90.0,111.0344
90.0,111.0329
90.0,111.0266
90.0,111.0329
90.0,111.0344
90.0,111.0407
90.0,111.0407
90.0,111.0407
90.0,111.0438
90.0,111.036
90.0,111.036
90.0,111.0329
90.0,111.0282
90.0,111.036
90.0,111.0251
90.0,111.0329
90.0,111.0282
90.0,111.0329
90.0,111.0391
90.0,111.0313
90.0,111.0391
90.0,111.0329
90.0,111.0298
90.0,111.0375
90.0,111.0298
90.0,111.036
90.0,111.0407
90.0,111.0407
90.0,111.0469
90.0,111.0375
90.0,111.0422
90.0,111.0375
90.0,111.0329
90.0,111.0453
90.0,111.0344
90.0,111.0407
90.0,111.0453
90.0,111.0391
90.0,111.05
90.0,111.0453
90.0,111.0438
90.0,111.0438
90.0,111.0407
90.0,111.0469
90.0,111.036
90.0,111.0438
90.0,111.0469
90.0,111.0438
90.0,111.0516
90.0,111.0484
90.0,111.0438
90.0,111.0469
90.0,111.0422
90.0,111.0407
90.0,111.0391
90.0,111.0391
95.0,111.0407
95.0,107.2125
95.0,106.3065
95.0,107.8462
95.0,109.2239
95.0,110.214
95.0,110.6748
95.0,110.8616
95.0,110.9223
95.0,110.9005
95.0,110.9021
95.0,110.9146
95.0,110.9208
95.0,110.9441
95.0,110.969
95.0,111.0874
95.0,111.0064
95.0,110.7527
95.0,110.7231
95.0,110.7604
95.0,110.7713
95.0,110.734
95.0,110.7776
95.0,110.7776
95.0,110.8025
95.0,110.8165
95.0,110.8165
95.0,110.8725
95.0,110.8679
95.0,110.8476
95.0,110.8585
95.0,110.8429
95.0,110.8507
95.0,110.885
95.0,110.8881
95.0,110.9239
95.0,110.8959
95.0,110.9379
95.0,110.9037
95.0,110.9317
95.0,110.9426
95.0,110.9192
95.0,110.9753
95.0,110.9473
95.0,110.9504
95.0,110.9582
95.0,110.9519
95.0,110.9799
95.0,110.9706
95.0,110.9893
95.0,110.9924
95.0,110.9862
95.0,111.0126
95.0,111.0189
95.0,110.9893
95.0,111.0049
95.0,110.9955
95.0,111.0204
95.0,111.0095
95.0,111.0329
95.0,111.0158
95.0,111.008
95.0,111.0438
95.0,111.0189
95.0,111.0453
95.0,111.0469
95.0,111.0344
95.0,111.0531
95.0,111.064
95.0,111.078
95.0,111.036
95.0,111.0718
95.0,111.0391
95.0,111.0375
95.0,111.0625
95.0,111.0453
95.0,111.0874
95.0,111.0858
95.0,111.0687
95.0,111.0951
95.0,111.0593
95.0,111.0734
95.0,111.0842
95.0,111.064
95.0,111.1076
95.0,111.078
95.0,111.1092
95.0,111.1107
95.0,111.0889
95.0,111.1169
95.0,111.0842
95.0,111.0936
95.0,111.1138
95.0,111.1185
95.0,111.1154
95.0,111.1201
95.0,111.1123
95.0,111.0967
95.0,111.1029
95.0,111.1014
95.0,111.1107
95.0,111.1232
95.0,111.1325
95.0,111.1387
95.0,111.145
95.0,111.1325
95.0,111.1278
95.0,111.1232
95.0,111.1154
95.0,111.1247
95.0,111.1247
95.0,111.131
95.0,111.145
95.0,111.1496
95.0,111.1527
95.0,111.1512
95.0,111.1387
95.0,111.1387
95.0,111.1325
95.0,111.1356
95.0,111.1434
95.0,111.1387
95.0,111.1403
95.0,111.1543
95.0,111.1403
95.0,111.1574
95.0,111.159
95.0,111.1574
95.0,111.159
95.0,111.1512
95.0,111.1559
95.0,111.1465
95.0,111.1543
95.0,111.1543
95.0,111.1543
95.0,111.1683
95.0,111.1652
95.0,111.1683
95.0,111.1605
95.0,111.1481
95.0,111.1668
95.0,111.159
95.0,111.1808
95.0,111.187
95.0,111.1777
95.0,111.1948
95.0,111.1777
95.0,111.1777
95.0,111.1683
95.0,111.1605
95.0,111.1823
95.0,111.1777
95.0,111.1823
95.0,111.1823
95.0,111.1792
95.0,111.1808
95.0,111.1901
95.0,111.1854
95.0,111.1886
95.0,111.1777
95.0,111.1839
95.0,111.201
95.0,111.1792
95.0,111.187
95.0,111.1886
95.0,111.1839
95.0,111.2026
95.0,111.187
95.0,111.1995
95.0,111.201
95.0,111.1948
95.0,111.2057
95.0,111.2026
95.0,111.201
95.0,111.2072
95.0,111.1963
95.0,111.2103
95.0,111.1995
95.0,111.2026
95.0,111.2103
95.0,111.2026
95.0,111.215
95.0,111.215
95.0,111.2119
95.0,111.2088
95.0,111.2088
95.0,111.2057
95.0,111.2026
95.0,111.2072
95.0,111.2166
95.0,111.2166
95.0,111.2244
95.0,111.2212
95.0,111.2166
95.0,111.2228
95.0,111.2135
95.0,111.215
95.0,111.2072
95.0,111.2135
95.0,111.2166
95.0,111.2228
95.0,111.2197
95.0,111.2321
95.0,111.2135
95.0,111.229
95.0,111.2321
95.0,111.2275
95.0,111.2368
95.0,111.2259
95.0,111.2384
95.0,111.2321
95.0,111.229
95.0,111.2321
95.0,111.2181
95.0,111.2337
95.0,111.229
95.0,111.229
95.0,111.2399
95.0,111.2275
95.0,111.243
95.0,111.2353
95.0,111.2399
95.0,111.2462
95.0,111.2399
95.0,111.2415
95.0,111.2337
95.0,111.2321
95.0,111.2275
95.0,111.2337
95.0,111.2477
95.0,111.2368
95.0,111.229
95.0,111.2446
95.0,111.2384
95.0,111.2493
95.0,111.2353
95.0,111.2555
95.0,111.2462
95.0,111.2539
95.0,111.2617
95.0,111.2446
95.0,111.2602
95.0,111.2508
95.0,111.2477
95.0,111.2648
95.0,111.2508
95.0,111.2633
95.0,111.2602
95.0,111.2462
95.0,111.2586
95.0,111.2477
95.0,111.2586
95.0,111.2617
95.0,111.2617
95.0,111.2711
95.0,111.2477
95.0,111.2633
95.0,111.2508
95.0,111.2508
95.0,111.2586
95.0,111.2508
95.0,111.2602
95.0,111.2602
95.0,111.2633
95.0,111.2773
95.0,111.2586
95.0,111.2679
95.0,111.2617
95.0,111.2586
95.0,111.2633
95.0,111.2508
95.0,111.2664
95.0,111.2757
95.0,111.2773
95.0,111.2773
95.0,111.2679
95.0,111.2773
95.0,111.2742
95.0,111.2679
95.0,111.2757
95.0,111.2648
95.0,111.282
95.0,111.2617
95.0,111.2679
95.0,111.282
95.0,111.2711
95.0,111.2788
95.0,111.2742
95.0,111.2695
95.0,111.2851
95.0,111.2695
95.0,111.2929
95.0,111.2648
95.0,111.2742
95.0,111.2835
95.0,111.2571
95.0,111.3069
95.0,111.2944
95.0,111.2866
95.0,111.3022
95.0,111.2679
95.0,111.2991
95.0,111.2726
95.0,111.2679
95.0,111.2975
95.0,111.2757
95.0,111.2991
95.0,111.2944
95.0,111.2804
95.0,111.296
95.0,111.2695
95.0,111.2897
95.0,111.3022
95.0,111.296
95.0,111.3084
95.0,111.2944
95.0,111.2991
95.0,111.2913
95.0,111.2851
95.0,111.3006
95.0,111.2851
95.0,111.3084
95.0,111.3084
95.0,111.3084
95.0,111.3115
95.0,111.2929
95.0,111.3131
95.0,111.2944
95.0,111.3038
95.0,111.3131
95.0,111.296
95.0,111.3193
95.0,111.3162
95.0,111.3193
95.0,111.3209
95.0,111.3022
95.0,111.3147
95.0,111.2975
95.0,111.3022
95.0,111.3131
95.0,111.3006
95.0,111.3209
95.0,111.3162
95.0,111.324
95.0,111.3255
95.0,111.3069
95.0,111.3178
95.0,111.3069
95.0,111.3115
95.0,111.3147
95.0,111.3115
95.0,111.3318
95.0,111.3302
95.0,111.3115
95.0,111.3318
95.0,111.3302
95.0,111.3178
95.0,111.3333
95.0,111.3131
95.0,111.3209
95.0,111.3271
95.0,111.3333
95.0,111.3364
95.0,111.3069
95.0,111.3131
95.0,111.3427
95.0,111.3255
95.0,111.3582
95.0,111.3333
95.0,111.3318
95.0,111.3318
95.0,111.3069
95.0,111.3287
95.0,111.3271
95.0,111.3396
95.0,111.3473
95.0,111.3489
95.0,111.3427
95.0,111.3411
95.0,111.338
95.0,111.3287
95.0,111.3271
95.0,111.3333
95.0,111.338
95.0,111.3442
95.0,111.3473
95.0,111.3442
95.0,111.3551
95.0,111.3536
95.0,111.3193
95.0,111.3255
95.0,111.3333
95.0,111.3364
95.0,111.352
95.0,111.3567
95.0,111.3816
95.0,111.3832
95.0,111.3458
95.0,111.3707
95.0,111.3769
95.0,111.3738
95.0,111.3567
95.0,111.3614
95.0,111.3707
95.0,111.3255
95.0,111.3582
95.0,111.3396
95.0,111.3287
95.0,111.3769
95.0,111.352
95.0,111.3769
95.0,111.3691
95.0,111.3364
95.0,111.3567
95.0,111.3318
95.0,111.3505
95.0,111.3598
95.0,111.352
95.0,111.3754
95.0,111.3691
95.0,111.3645
95.0,111.3598
95.0,111.3473
95.0,111.3738
95.0,111.3598
95.0,111.3707
95.0,111.3691
95.0,111.3567
95.0,111.3723
95.0,111.3567
95.0,111.366
95.0,111.3645
95.0,111.3567
95.0,111.3691
95.0,111.3629
95.0,111.3691
95.0,111.3691
95.0,111.3754
95.0,111.3769
95.0,111.3754
95.0,111.38
95.0,111.3785
95.0,111.3738
95.0,111.3785
95.0,111.3707
95.0,111.3691
95.0,111.3754
95.0,111.3738
95.0,111.3785
95.0,111.3738
100.0,111.3816
100.0,107.1456
100.0,106.1804
100.0,108.0221
100.0,109.5664
100.0,110.2965
100.0,110.5674
100.0,110.7418
100.0,110.8227
100.0,110.8788
100.0,110.9208
100.0,110.969
100.0,110.9924
100.0,111.0204
100.0,111.0438
100.0,111.0718
100.0,111.092
100.0,111.1169
100.0,111.1418
100.0,111.1777
100.0,111.1886
100.0,111.215
100.0,111.2259
100.0,111.2446
100.0,111.2617
100.0,111.2617
100.0,111.2835
100.0,111.2897
100.0,111.3022
100.0,111.3162
100.0,111.3209
100.0,111.3302
100.0,111.3349
100.0,111.3473
100.0,111.3536
100.0,111.3567
100.0,111.3723
100.0,111.3785
100.0,111.394
100.0,111.4003
100.0,111.4096
100.0,111.4096
100.0,111.4174
100.0,111.4252
100.0,111.4252
100.0,111.4361
100.0,111.4314
100.0,111.4516
100.0,111.4532
100.0,111.4657
100.0,111.4594
100.0,111.4657
100.0,111.4719
100.0,111.4734
100.0,111.4766
100.0,111.4781
100.0,111.4812
100.0,111.4843
100.0,111.4906
100.0,111.4984
100.0,111.5061
100.0,111.5124
100.0,111.5233
100.0,111.517
100.0,111.5155
100.0,111.5124
100.0,111.5155
100.0,111.5186
100.0,111.5186
100.0,111.5342
100.0,111.531
100.0,111.5435
100.0,111.5466
100.0,111.5466
100.0,111.5544
100.0,111.5466
100.0,111.5544
100.0,111.5497
100.0,111.5528
100.0,111.5591
100.0,111.5684
100.0,111.556
100.0,111.5544
100.0,111.5591
100.0,111.5637
100.0,111.5622
100.0,111.57
100.0,111.5684
100.0,111.5777
100.0,111.5793
100.0,111.5824
100.0,111.5933
100.0,111.5886
100.0,111.6011
100.0,111.5824
100.0,111.5855
100.0,111.5902
100.0,111.5886
100.0,111.5995
100.0,111.6011
100.0,111.6089
100.0,111.6136
100.0,111.6167
100.0,111.6291
100.0,111.6136
100.0,111.6198
100.0,111.6213
100.0,111.6198
100.0,111.6618
100.0,111.7054
100.0,111.5902
100.0,111.5668
100.0,111.5248
100.0,111.6073
100.0,111.6276
100.0,111.6198
100.0,111.6774
100.0,111.6213
100.0,111.6836
100.0,111.6509
100.0,111.6509
100.0,111.6136
100.0,111.6462
100.0,111.668
100.0,111.6696
100.0,111.6509
100.0,111.6758
100.0,111.6369
100.0,111.6494
100.0,111.6525
100.0,111.6634
100.0,111.6385
100.0,111.6618
100.0,111.6369
100.0,111.6447
100.0,111.6571
100.0,111.6385
100.0,111.7038
100.0,111.7007
100.0,111.6291
100.0,111.6058
100.0,111.5248
100.0,111.6089
100.0,111.7225
100.0,111.6556
100.0,111.7288
100.0,111.7179
100.0,111.7225
100.0,111.7241
100.0,111.6789
100.0,111.7241
100.0,111.6556
100.0,111.6836
100.0,111.6821
100.0,111.7397
100.0,111.6945
100.0,111.749
100.0,111.7397
100.0,111.7054
100.0,111.707
100.0,111.6898
100.0,111.7225
100.0,111.6867
100.0,111.6914
100.0,111.7007
100.0,111.6898
100.0,111.7583
100.0,111.707
100.0,111.7677
100.0,111.749
100.0,111.7537
100.0,111.6961
100.0,111.7116
100.0,111.7007
100.0,111.6992
100.0,111.7241
100.0,111.7054
100.0,111.7459
100.0,111.7241
100.0,111.7505
100.0,111.7459
100.0,111.7334
100.0,111.7412
100.0,111.7194
100.0,111.7334
100.0,111.7241
100.0,111.7288
100.0,111.7365
100.0,111.735
100.0,111.7474
100.0,111.7334
100.0,111.7443
100.0,111.7443
100.0,111.7459
100.0,111.7459
100.0,111.7474
100.0,111.7459
100.0,111.7537
100.0,111.7568
100.0,111.7568
100.0,111.763
100.0,111.7537
100.0,111.7568
100.0,111.7474
100.0,111.7568
100.0,111.7474
100.0,111.7614
100.0,111.7583
100.0,111.7568
100.0,111.7677
100.0,111.7552
100.0,111.7646
100.0,111.7568
100.0,111.7552
100.0,111.7583
100.0,111.7521
100.0,111.7692
100.0,111.763
100.0,111.7739
100.0,111.7739
100.0,111.7708
100.0,111.7832
100.0,111.7692
100.0,111.7677
100.0,111.7692
100.0,111.7583
100.0,111.7646
100.0,111.7646
100.0,111.7708
100.0,111.7692
100.0,111.7677
100.0,111.777
100.0,111.7692
100.0,111.7723
100.0,111.7708
100.0,111.7708
100.0,111.7801
100.0,111.7739
100.0,111.7817
100.0,111.7848
100.0,111.7755
100.0,111.7879
100.0,111.7755
100.0,111.7817
100.0,111.7786
100.0,111.7801
100.0,111.7879
100.0,111.7817
100.0,111.7895
100.0,111.763
100.0,111.777
100.0,111.7864
100.0,111.7817
100.0,111.7864
100.0,111.7879
100.0,111.7879
100.0,111.7957
100.0,111.791
100.0,111.8035
100.0,111.7941
100.0,111.8019
100.0,111.8066
100.0,111.7988
100.0,111.7973
100.0,111.7973
100.0,111.7988
100.0,111.8004
100.0,111.8004
100.0,111.8035
100.0,111.8019
100.0,111.8066
100.0,111.8097
100.0,111.805
100.0,111.8159
100.0,111.8082
100.0,111.8159
100.0,111.8128
100.0,111.8144
100.0,111.8159
100.0,111.8175
100.0,111.819
100.0,111.8175
100.0,111.8113
100.0,111.805
100.0,111.8159
100.0,111.8159
100.0,111.8175
100.0,111.8268
100.0,111.8206
100.0,111.8253
100.0,111.8253
100.0,111.8253
100.0,111.8268
100.0,111.8268
100.0,111.8268
100.0,111.8284
100.0,111.8268
100.0,111.8377
100.0,111.8331
100.0,111.8315
100.0,111.8346
100.0,111.8346
100.0,111.8346
100.0,111.8346
100.0,111.8362
100.0,111.8362
100.0,111.8377
100.0,111.8408
100.0,111.8377
100.0,111.8408
100.0,111.8424
100.0,111.8424
100.0,111.8424
100.0,111.844
100.0,111.8424
100.0,111.8377
100.0,111.8408
100.0,111.844
100.0,111.8455
100.0,111.8549
100.0,111.8486
100.0,111.8533
100.0,111.8533
100.0,111.8517
100.0,111.8517
100.0,111.8517
100.0,111.8517
100.0,111.8517
100.0,111.8517
100.0,111.858
100.0,111.8533
100.0,111.8595
100.0,111.8595
100.0,111.8549
100.0,111.8595
100.0,111.8315
100.0,111.8346
100.0,111.8517
100.0,111.8658
100.0,111.8626
100.0,111.8658
100.0,111.8642
100.0,111.8689
100.0,111.8642
100.0,111.8907
100.0,111.8658
100.0,111.9031
100.0,111.8735
100.0,111.8829
100.0,111.9047
100.0,111.8813
100.0,111.8829
100.0,111.8969
100.0,111.872
100.0,111.8829
100.0,111.872
100.0,111.8766
100.0,111.8735
100.0,111.8891
100.0,111.8782
100.0,111.8922
100.0,111.886
100.0,111.8813
100.0,111.8782
100.0,111.8658
100.0,111.8798
100.0,111.8798
100.0,111.8813
100.0,111.8829
100.0,111.8829
100.0,111.8875
100.0,111.886
100.0,111.8922
100.0,111.8938
100.0,111.886
100.0,111.886
100.0,111.8875
100.0,111.886
100.0,111.8938
100.0,111.8798
100.0,111.8875
100.0,111.8922
100.0,111.8938
100.0,111.8891
100.0,111.8891
100.0,111.8938
100.0,111.8891
100.0,111.8969
100.0,111.8953
100.0,111.8953
100.0,111.9
100.0,111.8969
100.0,111.9031
100.0,111.9
100.0,111.9031
100.0,111.9031
100.0,111.9016
100.0,111.9078
100.0,111.9047
100.0,111.9093
100.0,111.9109
100.0,111.9109
100.0,111.9125
100.0,111.9109
100.0,111.914
100.0,111.9109
100.0,111.914
100.0,111.9156
100.0,111.914
100.0,111.9156
100.0,111.9156
100.0,111.9156
100.0,111.9171
100.0,111.9156
100.0,111.9218
100.0,111.9202
100.0,111.9156
100.0,111.9187
100.0,111.9218
100.0,111.9218
100.0,111.9249
100.0,111.9249
100.0,111.9249
100.0,111.9234
100.0,111.9249
100.0,111.928
100.0,111.928
100.0,111.9296
100.0,111.928
100.0,111.9311
100.0,111.928
100.0,111.9311
100.0,111.928
100.0,111.9296
100.0,111.9296
100.0,111.9296
100.0,111.9342
100.0,111.9327
100.0,111.9389
100.0,111.928
100.0,111.9296
100.0,111.942
100.0,111.9311
100.0,111.9451
100.0,111.9218
100.0,111.9374
100.0,111.9405
100.0,111.9374
100.0,111.942
100.0,111.9218
